%YAML 1.1
%TAG !u! tag:unity3d.com,2011:
--- !u!1 &3990672949260964628
GameObject:
  m_ObjectHideFlags: 0
  m_CorrespondingSourceObject: {fileID: 0}
  m_PrefabInstance: {fileID: 0}
  m_PrefabAsset: {fileID: 0}
  serializedVersion: 6
  m_Component:
  - component: {fileID: 746574118659842484}
  - component: {fileID: 3740840938994847812}
  - component: {fileID: 9162115284154986271}
  - component: {fileID: 8309403636253029598}
  - component: {fileID: 8383896201768086411}
  - component: {fileID: 3934465611753612909}
  - component: {fileID: 2860808442229753965}
  m_Layer: 7
  m_Name: JimmyVallance
  m_TagString: Untagged
  m_Icon: {fileID: 0}
  m_NavMeshLayer: 0
  m_StaticEditorFlags: 0
  m_IsActive: 1
--- !u!4 &746574118659842484
Transform:
  m_ObjectHideFlags: 0
  m_CorrespondingSourceObject: {fileID: 0}
  m_PrefabInstance: {fileID: 0}
  m_PrefabAsset: {fileID: 0}
  m_GameObject: {fileID: 3990672949260964628}
  serializedVersion: 2
  m_LocalRotation: {x: 0, y: 0, z: 0, w: 1}
  m_LocalPosition: {x: 7.4, y: 15.39, z: -0.034360457}
  m_LocalScale: {x: 1, y: 1, z: 1}
  m_ConstrainProportionsScale: 0
  m_Children: []
  m_Father: {fileID: 0}
  m_LocalEulerAnglesHint: {x: 0, y: 0, z: 0}
--- !u!95 &3740840938994847812
Animator:
  serializedVersion: 5
  m_ObjectHideFlags: 0
  m_CorrespondingSourceObject: {fileID: 0}
  m_PrefabInstance: {fileID: 0}
  m_PrefabAsset: {fileID: 0}
  m_GameObject: {fileID: 3990672949260964628}
  m_Enabled: 1
  m_Avatar: {fileID: 0}
  m_Controller: {fileID: 22100000, guid: 2dad1c603fd4859479dc14d5c344eb84, type: 2}
  m_CullingMode: 0
  m_UpdateMode: 0
  m_ApplyRootMotion: 0
  m_LinearVelocityBlending: 0
  m_StabilizeFeet: 0
  m_WarningMessage: 
  m_HasTransformHierarchy: 1
  m_AllowConstantClipSamplingOptimization: 1
  m_KeepAnimatorStateOnDisable: 0
  m_WriteDefaultValuesOnDisable: 0
--- !u!212 &9162115284154986271
SpriteRenderer:
  m_ObjectHideFlags: 0
  m_CorrespondingSourceObject: {fileID: 0}
  m_PrefabInstance: {fileID: 0}
  m_PrefabAsset: {fileID: 0}
  m_GameObject: {fileID: 3990672949260964628}
  m_Enabled: 1
  m_CastShadows: 0
  m_ReceiveShadows: 0
  m_DynamicOccludee: 1
  m_StaticShadowCaster: 0
  m_MotionVectors: 1
  m_LightProbeUsage: 1
  m_ReflectionProbeUsage: 1
  m_RayTracingMode: 0
  m_RayTraceProcedural: 0
  m_RenderingLayerMask: 1
  m_RendererPriority: 0
  m_Materials:
  - {fileID: 10754, guid: 0000000000000000f000000000000000, type: 0}
  m_StaticBatchInfo:
    firstSubMesh: 0
    subMeshCount: 0
  m_StaticBatchRoot: {fileID: 0}
  m_ProbeAnchor: {fileID: 0}
  m_LightProbeVolumeOverride: {fileID: 0}
  m_ScaleInLightmap: 1
  m_ReceiveGI: 1
  m_PreserveUVs: 0
  m_IgnoreNormalsForChartDetection: 0
  m_ImportantGI: 0
  m_StitchLightmapSeams: 1
  m_SelectedEditorRenderState: 0
  m_MinimumChartSize: 4
  m_AutoUVMaxDistance: 0.5
  m_AutoUVMaxAngle: 89
  m_LightmapParameters: {fileID: 0}
  m_SortingLayerID: 1804750471
  m_SortingLayer: 1
  m_SortingOrder: 0
  m_Sprite: {fileID: 1494717352, guid: b943a6b807166b74f99e3efd4f816c49, type: 3}
  m_Color: {r: 1, g: 1, b: 1, a: 1}
  m_FlipX: 0
  m_FlipY: 0
  m_DrawMode: 0
  m_Size: {x: 1.2, y: 1.3}
  m_AdaptiveModeThreshold: 0.5
  m_SpriteTileMode: 0
  m_WasSpriteAssigned: 1
  m_MaskInteraction: 0
  m_SpriteSortPoint: 0
--- !u!61 &8309403636253029598
BoxCollider2D:
  m_ObjectHideFlags: 0
  m_CorrespondingSourceObject: {fileID: 0}
  m_PrefabInstance: {fileID: 0}
  m_PrefabAsset: {fileID: 0}
  m_GameObject: {fileID: 3990672949260964628}
  m_Enabled: 1
  m_Density: 1
  m_Material: {fileID: 0}
  m_IncludeLayers:
    serializedVersion: 2
    m_Bits: 0
  m_ExcludeLayers:
    serializedVersion: 2
    m_Bits: 0
  m_LayerOverridePriority: 0
  m_ForceSendLayers:
    serializedVersion: 2
    m_Bits: 4294967295
  m_ForceReceiveLayers:
    serializedVersion: 2
    m_Bits: 4294967295
  m_ContactCaptureLayers:
    serializedVersion: 2
    m_Bits: 4294967295
  m_CallbackLayers:
    serializedVersion: 2
    m_Bits: 4294967295
  m_IsTrigger: 1
  m_UsedByEffector: 0
  m_UsedByComposite: 0
  m_Offset: {x: 0, y: 0}
  m_SpriteTilingProperty:
    border: {x: 0, y: 0, z: 0, w: 0}
    pivot: {x: 0.5, y: 0.5}
    oldSize: {x: 1, y: 1.15}
    newSize: {x: 1.2, y: 1.3}
    adaptiveTilingThreshold: 0.5
    drawMode: 0
    adaptiveTiling: 0
  m_AutoTiling: 0
  serializedVersion: 2
  m_Size: {x: 0.1, y: 0.1}
  m_EdgeRadius: 0
--- !u!114 &8383896201768086411
MonoBehaviour:
  m_ObjectHideFlags: 0
  m_CorrespondingSourceObject: {fileID: 0}
  m_PrefabInstance: {fileID: 0}
  m_PrefabAsset: {fileID: 0}
  m_GameObject: {fileID: 3990672949260964628}
  m_Enabled: 1
  m_EditorHideFlags: 0
  m_Script: {fileID: 11500000, guid: c593457cd8105e148906690e1707c592, type: 3}
  m_Name: 
  m_EditorClassIdentifier: 
  trigger: 32
  condition:
    luaConditions: []
    questConditions: []
    acceptedTags: []
    acceptedGameObjects: []
    luaWizardIndex: -1
    lastEvaluationValue: 0
  setQuestState: 1
  questName: 
  questState: 0
  setQuestEntryState: 0
  questEntryNumber: 1
  questEntryState: 0
  setAnotherQuestEntryState: 0
  anotherQuestEntryNumber: 1
  anotherQuestEntryState: 0
  luaCode: 
  sequence: 
  sequenceSpeaker: {fileID: 0}
  sequenceListener: {fileID: 0}
  waitOneFrameOnStartOrEnable: 1
  alertMessage: 
  textTable: {fileID: 0}
  alertDuration: 0
  sendMessages: []
  barkSource: 0
  barkConversation: 
  barkText: 
  barkTextSequence: 
  barker: {fileID: 0}
  barkTarget: {fileID: 0}
  barkOrder: 0
  allowBarksDuringConversations: 0
  skipBarkIfNoValidEntries: 0
  cacheBarkLines: 0
  conversation: JIMMY VALLANCE
  conversationConversant: {fileID: 746574118659842484}
  conversationActor: {fileID: 0}
  startConversationEntryID: -1
  startConversationEntryTitle: 
  exclusive: 0
  replace: 0
  skipIfNoValidEntries: 0
  preventRestartOnSameFrameEnded: 1
  stopConversationOnTriggerExit: 0
  stopConversationIfTooFar: 0
  maxConversationDistance: 5
  monitorConversationDistanceFrequency: 1
  showCursorDuringConversation: 0
  pauseGameDuringConversation: 0
  setActiveActions: []
  setEnabledActions: []
  setAnimatorStateActions: []
  onExecute:
    m_PersistentCalls:
      m_Calls: []
  useConversationTitlePicker: 1
  useBarkTitlePicker: 1
  useQuestNamePicker: 1
  selectedDatabase: {fileID: 11400000, guid: f77e06cb615d29d409657c134b7c2a4a, type: 2}
--- !u!114 &3934465611753612909
MonoBehaviour:
  m_ObjectHideFlags: 0
  m_CorrespondingSourceObject: {fileID: 0}
  m_PrefabInstance: {fileID: 0}
  m_PrefabAsset: {fileID: 0}
  m_GameObject: {fileID: 3990672949260964628}
  m_Enabled: 1
  m_EditorHideFlags: 0
  m_Script: {fileID: 11500000, guid: 274b80ab5b659c646ba9338870d14625, type: 3}
  m_Name: 
  m_EditorClassIdentifier: 
  overrideName: 
  overrideUseMessage: 
  maxUseDistance: 30
  events:
    onSelect:
      m_PersistentCalls:
        m_Calls: []
    onDeselect:
      m_PersistentCalls:
        m_Calls: []
    onUse:
      m_PersistentCalls:
        m_Calls: []
--- !u!61 &2860808442229753965
BoxCollider2D:
  m_ObjectHideFlags: 0
  m_CorrespondingSourceObject: {fileID: 0}
  m_PrefabInstance: {fileID: 0}
  m_PrefabAsset: {fileID: 0}
  m_GameObject: {fileID: 3990672949260964628}
  m_Enabled: 1
  m_Density: 1
  m_Material: {fileID: 0}
  m_IncludeLayers:
    serializedVersion: 2
    m_Bits: 0
  m_ExcludeLayers:
    serializedVersion: 2
    m_Bits: 0
  m_LayerOverridePriority: 0
  m_ForceSendLayers:
    serializedVersion: 2
    m_Bits: 4294967295
  m_ForceReceiveLayers:
    serializedVersion: 2
    m_Bits: 4294967295
  m_ContactCaptureLayers:
    serializedVersion: 2
    m_Bits: 4294967295
  m_CallbackLayers:
    serializedVersion: 2
    m_Bits: 4294967295
  m_IsTrigger: 0
  m_UsedByEffector: 0
  m_UsedByComposite: 0
  m_Offset: {x: 0, y: 0.06836897}
  m_SpriteTilingProperty:
    border: {x: 0, y: 0, z: 0, w: 0}
    pivot: {x: 0.5, y: 0.5}
    oldSize: {x: 1, y: 1.15}
    newSize: {x: 1.2, y: 1.3}
    adaptiveTilingThreshold: 0.5
    drawMode: 0
    adaptiveTiling: 0
  m_AutoTiling: 0
  serializedVersion: 2
  m_Size: {x: 0.9, y: 0.9367379}
  m_EdgeRadius: 0
