%YAML 1.1
%TAG !u! tag:unity3d.com,2011:
--- !u!1 &257849266021581908
GameObject:
  m_ObjectHideFlags: 0
  m_CorrespondingSourceObject: {fileID: 0}
  m_PrefabInstance: {fileID: 0}
  m_PrefabAsset: {fileID: 0}
  serializedVersion: 6
  m_Component:
  - component: {fileID: 1016722530683096677}
  - component: {fileID: 6532377508991199964}
  m_Layer: 0
  m_Name: floor
  m_TagString: Untagged
  m_Icon: {fileID: 0}
  m_NavMeshLayer: 0
  m_StaticEditorFlags: 0
  m_IsActive: 1
--- !u!4 &1016722530683096677
Transform:
  m_ObjectHideFlags: 0
  m_CorrespondingSourceObject: {fileID: 0}
  m_PrefabInstance: {fileID: 0}
  m_PrefabAsset: {fileID: 0}
  m_GameObject: {fileID: 257849266021581908}
  serializedVersion: 2
  m_LocalRotation: {x: 0, y: 0, z: 0, w: 1}
  m_LocalPosition: {x: 0, y: 0, z: 0}
  m_LocalScale: {x: 1, y: 1, z: 1}
  m_ConstrainProportionsScale: 0
  m_Children:
  - {fileID: 5582659663240773418}
  m_Father: {fileID: 0}
  m_LocalEulerAnglesHint: {x: 0, y: 0, z: 0}
--- !u!156049354 &6532377508991199964
Grid:
  m_ObjectHideFlags: 0
  m_CorrespondingSourceObject: {fileID: 0}
  m_PrefabInstance: {fileID: 0}
  m_PrefabAsset: {fileID: 0}
  m_GameObject: {fileID: 257849266021581908}
  m_Enabled: 1
  m_CellSize: {x: 1, y: 1, z: 0}
  m_CellGap: {x: 0, y: 0, z: 0}
  m_CellLayout: 0
  m_CellSwizzle: 0
--- !u!1 &2669395891172394064
GameObject:
  m_ObjectHideFlags: 0
  m_CorrespondingSourceObject: {fileID: 0}
  m_PrefabInstance: {fileID: 0}
  m_PrefabAsset: {fileID: 0}
  serializedVersion: 6
  m_Component:
  - component: {fileID: 5582659663240773418}
  - component: {fileID: 4046595619867955690}
  - component: {fileID: 438028765534581422}
  m_Layer: 0
  m_Name: Layer1
  m_TagString: Untagged
  m_Icon: {fileID: 0}
  m_NavMeshLayer: 0
  m_StaticEditorFlags: 0
  m_IsActive: 1
--- !u!4 &5582659663240773418
Transform:
  m_ObjectHideFlags: 0
  m_CorrespondingSourceObject: {fileID: 0}
  m_PrefabInstance: {fileID: 0}
  m_PrefabAsset: {fileID: 0}
  m_GameObject: {fileID: 2669395891172394064}
  serializedVersion: 2
  m_LocalRotation: {x: -0, y: -0, z: -0, w: 1}
  m_LocalPosition: {x: 0, y: 0, z: 0}
  m_LocalScale: {x: 1, y: 1, z: 1}
  m_ConstrainProportionsScale: 0
  m_Children: []
  m_Father: {fileID: 1016722530683096677}
  m_LocalEulerAnglesHint: {x: 0, y: 0, z: 0}
--- !u!1839735485 &4046595619867955690
Tilemap:
  m_ObjectHideFlags: 0
  m_CorrespondingSourceObject: {fileID: 0}
  m_PrefabInstance: {fileID: 0}
  m_PrefabAsset: {fileID: 0}
  m_GameObject: {fileID: 2669395891172394064}
  m_Enabled: 1
  m_Tiles:
  - first: {x: 0, y: -9, z: 0}
    second:
      serializedVersion: 2
      m_TileIndex: 90
      m_TileSpriteIndex: 90
      m_TileMatrixIndex: 0
      m_TileColorIndex: 0
      m_TileObjectToInstantiateIndex: 65535
      dummyAlignment: 0
      m_AllTileFlags: 1073741825
  - first: {x: 1, y: -9, z: 0}
    second:
      serializedVersion: 2
      m_TileIndex: 91
      m_TileSpriteIndex: 91
      m_TileMatrixIndex: 0
      m_TileColorIndex: 0
      m_TileObjectToInstantiateIndex: 65535
      dummyAlignment: 0
      m_AllTileFlags: 1073741825
  - first: {x: 2, y: -9, z: 0}
    second:
      serializedVersion: 2
      m_TileIndex: 92
      m_TileSpriteIndex: 92
      m_TileMatrixIndex: 0
      m_TileColorIndex: 0
      m_TileObjectToInstantiateIndex: 65535
      dummyAlignment: 0
      m_AllTileFlags: 1073741825
  - first: {x: 3, y: -9, z: 0}
    second:
      serializedVersion: 2
      m_TileIndex: 93
      m_TileSpriteIndex: 93
      m_TileMatrixIndex: 0
      m_TileColorIndex: 0
      m_TileObjectToInstantiateIndex: 65535
      dummyAlignment: 0
      m_AllTileFlags: 1073741825
  - first: {x: 4, y: -9, z: 0}
    second:
      serializedVersion: 2
      m_TileIndex: 94
      m_TileSpriteIndex: 94
      m_TileMatrixIndex: 0
      m_TileColorIndex: 0
      m_TileObjectToInstantiateIndex: 65535
      dummyAlignment: 0
      m_AllTileFlags: 1073741825
  - first: {x: 0, y: -8, z: 0}
    second:
      serializedVersion: 2
      m_TileIndex: 80
      m_TileSpriteIndex: 80
      m_TileMatrixIndex: 0
      m_TileColorIndex: 0
      m_TileObjectToInstantiateIndex: 65535
      dummyAlignment: 0
      m_AllTileFlags: 1073741825
  - first: {x: 1, y: -8, z: 0}
    second:
      serializedVersion: 2
      m_TileIndex: 81
      m_TileSpriteIndex: 81
      m_TileMatrixIndex: 0
      m_TileColorIndex: 0
      m_TileObjectToInstantiateIndex: 65535
      dummyAlignment: 0
      m_AllTileFlags: 1073741825
  - first: {x: 2, y: -8, z: 0}
    second:
      serializedVersion: 2
      m_TileIndex: 82
      m_TileSpriteIndex: 82
      m_TileMatrixIndex: 0
      m_TileColorIndex: 0
      m_TileObjectToInstantiateIndex: 65535
      dummyAlignment: 0
      m_AllTileFlags: 1073741825
  - first: {x: 3, y: -8, z: 0}
    second:
      serializedVersion: 2
      m_TileIndex: 83
      m_TileSpriteIndex: 83
      m_TileMatrixIndex: 0
      m_TileColorIndex: 0
      m_TileObjectToInstantiateIndex: 65535
      dummyAlignment: 0
      m_AllTileFlags: 1073741825
  - first: {x: 4, y: -8, z: 0}
    second:
      serializedVersion: 2
      m_TileIndex: 84
      m_TileSpriteIndex: 84
      m_TileMatrixIndex: 0
      m_TileColorIndex: 0
      m_TileObjectToInstantiateIndex: 65535
      dummyAlignment: 0
      m_AllTileFlags: 1073741825
  - first: {x: 5, y: -8, z: 0}
    second:
      serializedVersion: 2
      m_TileIndex: 85
      m_TileSpriteIndex: 85
      m_TileMatrixIndex: 0
      m_TileColorIndex: 0
      m_TileObjectToInstantiateIndex: 65535
      dummyAlignment: 0
      m_AllTileFlags: 1073741825
  - first: {x: 6, y: -8, z: 0}
    second:
      serializedVersion: 2
      m_TileIndex: 86
      m_TileSpriteIndex: 86
      m_TileMatrixIndex: 0
      m_TileColorIndex: 0
      m_TileObjectToInstantiateIndex: 65535
      dummyAlignment: 0
      m_AllTileFlags: 1073741825
  - first: {x: 7, y: -8, z: 0}
    second:
      serializedVersion: 2
      m_TileIndex: 87
      m_TileSpriteIndex: 87
      m_TileMatrixIndex: 0
      m_TileColorIndex: 0
      m_TileObjectToInstantiateIndex: 65535
      dummyAlignment: 0
      m_AllTileFlags: 1073741825
  - first: {x: 8, y: -8, z: 0}
    second:
      serializedVersion: 2
      m_TileIndex: 88
      m_TileSpriteIndex: 88
      m_TileMatrixIndex: 0
      m_TileColorIndex: 0
      m_TileObjectToInstantiateIndex: 65535
      dummyAlignment: 0
      m_AllTileFlags: 1073741825
  - first: {x: 9, y: -8, z: 0}
    second:
      serializedVersion: 2
      m_TileIndex: 89
      m_TileSpriteIndex: 89
      m_TileMatrixIndex: 0
      m_TileColorIndex: 0
      m_TileObjectToInstantiateIndex: 65535
      dummyAlignment: 0
      m_AllTileFlags: 1073741825
  - first: {x: 0, y: -7, z: 0}
    second:
      serializedVersion: 2
      m_TileIndex: 70
      m_TileSpriteIndex: 70
      m_TileMatrixIndex: 0
      m_TileColorIndex: 0
      m_TileObjectToInstantiateIndex: 65535
      dummyAlignment: 0
      m_AllTileFlags: 1073741825
  - first: {x: 1, y: -7, z: 0}
    second:
      serializedVersion: 2
      m_TileIndex: 71
      m_TileSpriteIndex: 71
      m_TileMatrixIndex: 0
      m_TileColorIndex: 0
      m_TileObjectToInstantiateIndex: 65535
      dummyAlignment: 0
      m_AllTileFlags: 1073741825
  - first: {x: 2, y: -7, z: 0}
    second:
      serializedVersion: 2
      m_TileIndex: 72
      m_TileSpriteIndex: 72
      m_TileMatrixIndex: 0
      m_TileColorIndex: 0
      m_TileObjectToInstantiateIndex: 65535
      dummyAlignment: 0
      m_AllTileFlags: 1073741825
  - first: {x: 3, y: -7, z: 0}
    second:
      serializedVersion: 2
      m_TileIndex: 73
      m_TileSpriteIndex: 73
      m_TileMatrixIndex: 0
      m_TileColorIndex: 0
      m_TileObjectToInstantiateIndex: 65535
      dummyAlignment: 0
      m_AllTileFlags: 1073741825
  - first: {x: 4, y: -7, z: 0}
    second:
      serializedVersion: 2
      m_TileIndex: 74
      m_TileSpriteIndex: 74
      m_TileMatrixIndex: 0
      m_TileColorIndex: 0
      m_TileObjectToInstantiateIndex: 65535
      dummyAlignment: 0
      m_AllTileFlags: 1073741825
  - first: {x: 5, y: -7, z: 0}
    second:
      serializedVersion: 2
      m_TileIndex: 75
      m_TileSpriteIndex: 75
      m_TileMatrixIndex: 0
      m_TileColorIndex: 0
      m_TileObjectToInstantiateIndex: 65535
      dummyAlignment: 0
      m_AllTileFlags: 1073741825
  - first: {x: 6, y: -7, z: 0}
    second:
      serializedVersion: 2
      m_TileIndex: 76
      m_TileSpriteIndex: 76
      m_TileMatrixIndex: 0
      m_TileColorIndex: 0
      m_TileObjectToInstantiateIndex: 65535
      dummyAlignment: 0
      m_AllTileFlags: 1073741825
  - first: {x: 7, y: -7, z: 0}
    second:
      serializedVersion: 2
      m_TileIndex: 77
      m_TileSpriteIndex: 77
      m_TileMatrixIndex: 0
      m_TileColorIndex: 0
      m_TileObjectToInstantiateIndex: 65535
      dummyAlignment: 0
      m_AllTileFlags: 1073741825
  - first: {x: 8, y: -7, z: 0}
    second:
      serializedVersion: 2
      m_TileIndex: 78
      m_TileSpriteIndex: 78
      m_TileMatrixIndex: 0
      m_TileColorIndex: 0
      m_TileObjectToInstantiateIndex: 65535
      dummyAlignment: 0
      m_AllTileFlags: 1073741825
  - first: {x: 9, y: -7, z: 0}
    second:
      serializedVersion: 2
      m_TileIndex: 79
      m_TileSpriteIndex: 79
      m_TileMatrixIndex: 0
      m_TileColorIndex: 0
      m_TileObjectToInstantiateIndex: 65535
      dummyAlignment: 0
      m_AllTileFlags: 1073741825
  - first: {x: 0, y: -6, z: 0}
    second:
      serializedVersion: 2
      m_TileIndex: 60
      m_TileSpriteIndex: 60
      m_TileMatrixIndex: 0
      m_TileColorIndex: 0
      m_TileObjectToInstantiateIndex: 65535
      dummyAlignment: 0
      m_AllTileFlags: 1073741825
  - first: {x: 1, y: -6, z: 0}
    second:
      serializedVersion: 2
      m_TileIndex: 61
      m_TileSpriteIndex: 61
      m_TileMatrixIndex: 0
      m_TileColorIndex: 0
      m_TileObjectToInstantiateIndex: 65535
      dummyAlignment: 0
      m_AllTileFlags: 1073741825
  - first: {x: 2, y: -6, z: 0}
    second:
      serializedVersion: 2
      m_TileIndex: 62
      m_TileSpriteIndex: 62
      m_TileMatrixIndex: 0
      m_TileColorIndex: 0
      m_TileObjectToInstantiateIndex: 65535
      dummyAlignment: 0
      m_AllTileFlags: 1073741825
  - first: {x: 3, y: -6, z: 0}
    second:
      serializedVersion: 2
      m_TileIndex: 63
      m_TileSpriteIndex: 63
      m_TileMatrixIndex: 0
      m_TileColorIndex: 0
      m_TileObjectToInstantiateIndex: 65535
      dummyAlignment: 0
      m_AllTileFlags: 1073741825
  - first: {x: 4, y: -6, z: 0}
    second:
      serializedVersion: 2
      m_TileIndex: 64
      m_TileSpriteIndex: 64
      m_TileMatrixIndex: 0
      m_TileColorIndex: 0
      m_TileObjectToInstantiateIndex: 65535
      dummyAlignment: 0
      m_AllTileFlags: 1073741825
  - first: {x: 5, y: -6, z: 0}
    second:
      serializedVersion: 2
      m_TileIndex: 65
      m_TileSpriteIndex: 65
      m_TileMatrixIndex: 0
      m_TileColorIndex: 0
      m_TileObjectToInstantiateIndex: 65535
      dummyAlignment: 0
      m_AllTileFlags: 1073741825
  - first: {x: 6, y: -6, z: 0}
    second:
      serializedVersion: 2
      m_TileIndex: 66
      m_TileSpriteIndex: 66
      m_TileMatrixIndex: 0
      m_TileColorIndex: 0
      m_TileObjectToInstantiateIndex: 65535
      dummyAlignment: 0
      m_AllTileFlags: 1073741825
  - first: {x: 7, y: -6, z: 0}
    second:
      serializedVersion: 2
      m_TileIndex: 67
      m_TileSpriteIndex: 67
      m_TileMatrixIndex: 0
      m_TileColorIndex: 0
      m_TileObjectToInstantiateIndex: 65535
      dummyAlignment: 0
      m_AllTileFlags: 1073741825
  - first: {x: 8, y: -6, z: 0}
    second:
      serializedVersion: 2
      m_TileIndex: 68
      m_TileSpriteIndex: 68
      m_TileMatrixIndex: 0
      m_TileColorIndex: 0
      m_TileObjectToInstantiateIndex: 65535
      dummyAlignment: 0
      m_AllTileFlags: 1073741825
  - first: {x: 9, y: -6, z: 0}
    second:
      serializedVersion: 2
      m_TileIndex: 69
      m_TileSpriteIndex: 69
      m_TileMatrixIndex: 0
      m_TileColorIndex: 0
      m_TileObjectToInstantiateIndex: 65535
      dummyAlignment: 0
      m_AllTileFlags: 1073741825
  - first: {x: 0, y: -5, z: 0}
    second:
      serializedVersion: 2
      m_TileIndex: 50
      m_TileSpriteIndex: 50
      m_TileMatrixIndex: 0
      m_TileColorIndex: 0
      m_TileObjectToInstantiateIndex: 65535
      dummyAlignment: 0
      m_AllTileFlags: 1073741825
  - first: {x: 1, y: -5, z: 0}
    second:
      serializedVersion: 2
      m_TileIndex: 51
      m_TileSpriteIndex: 51
      m_TileMatrixIndex: 0
      m_TileColorIndex: 0
      m_TileObjectToInstantiateIndex: 65535
      dummyAlignment: 0
      m_AllTileFlags: 1073741825
  - first: {x: 2, y: -5, z: 0}
    second:
      serializedVersion: 2
      m_TileIndex: 52
      m_TileSpriteIndex: 52
      m_TileMatrixIndex: 0
      m_TileColorIndex: 0
      m_TileObjectToInstantiateIndex: 65535
      dummyAlignment: 0
      m_AllTileFlags: 1073741825
  - first: {x: 3, y: -5, z: 0}
    second:
      serializedVersion: 2
      m_TileIndex: 53
      m_TileSpriteIndex: 53
      m_TileMatrixIndex: 0
      m_TileColorIndex: 0
      m_TileObjectToInstantiateIndex: 65535
      dummyAlignment: 0
      m_AllTileFlags: 1073741825
  - first: {x: 4, y: -5, z: 0}
    second:
      serializedVersion: 2
      m_TileIndex: 54
      m_TileSpriteIndex: 54
      m_TileMatrixIndex: 0
      m_TileColorIndex: 0
      m_TileObjectToInstantiateIndex: 65535
      dummyAlignment: 0
      m_AllTileFlags: 1073741825
  - first: {x: 5, y: -5, z: 0}
    second:
      serializedVersion: 2
      m_TileIndex: 55
      m_TileSpriteIndex: 55
      m_TileMatrixIndex: 0
      m_TileColorIndex: 0
      m_TileObjectToInstantiateIndex: 65535
      dummyAlignment: 0
      m_AllTileFlags: 1073741825
  - first: {x: 6, y: -5, z: 0}
    second:
      serializedVersion: 2
      m_TileIndex: 56
      m_TileSpriteIndex: 56
      m_TileMatrixIndex: 0
      m_TileColorIndex: 0
      m_TileObjectToInstantiateIndex: 65535
      dummyAlignment: 0
      m_AllTileFlags: 1073741825
  - first: {x: 7, y: -5, z: 0}
    second:
      serializedVersion: 2
      m_TileIndex: 57
      m_TileSpriteIndex: 57
      m_TileMatrixIndex: 0
      m_TileColorIndex: 0
      m_TileObjectToInstantiateIndex: 65535
      dummyAlignment: 0
      m_AllTileFlags: 1073741825
  - first: {x: 8, y: -5, z: 0}
    second:
      serializedVersion: 2
      m_TileIndex: 58
      m_TileSpriteIndex: 58
      m_TileMatrixIndex: 0
      m_TileColorIndex: 0
      m_TileObjectToInstantiateIndex: 65535
      dummyAlignment: 0
      m_AllTileFlags: 1073741825
  - first: {x: 9, y: -5, z: 0}
    second:
      serializedVersion: 2
      m_TileIndex: 59
      m_TileSpriteIndex: 59
      m_TileMatrixIndex: 0
      m_TileColorIndex: 0
      m_TileObjectToInstantiateIndex: 65535
      dummyAlignment: 0
      m_AllTileFlags: 1073741825
  - first: {x: 0, y: -4, z: 0}
    second:
      serializedVersion: 2
      m_TileIndex: 40
      m_TileSpriteIndex: 40
      m_TileMatrixIndex: 0
      m_TileColorIndex: 0
      m_TileObjectToInstantiateIndex: 65535
      dummyAlignment: 0
      m_AllTileFlags: 1073741825
  - first: {x: 1, y: -4, z: 0}
    second:
      serializedVersion: 2
      m_TileIndex: 41
      m_TileSpriteIndex: 41
      m_TileMatrixIndex: 0
      m_TileColorIndex: 0
      m_TileObjectToInstantiateIndex: 65535
      dummyAlignment: 0
      m_AllTileFlags: 1073741825
  - first: {x: 2, y: -4, z: 0}
    second:
      serializedVersion: 2
      m_TileIndex: 42
      m_TileSpriteIndex: 42
      m_TileMatrixIndex: 0
      m_TileColorIndex: 0
      m_TileObjectToInstantiateIndex: 65535
      dummyAlignment: 0
      m_AllTileFlags: 1073741825
  - first: {x: 3, y: -4, z: 0}
    second:
      serializedVersion: 2
      m_TileIndex: 43
      m_TileSpriteIndex: 43
      m_TileMatrixIndex: 0
      m_TileColorIndex: 0
      m_TileObjectToInstantiateIndex: 65535
      dummyAlignment: 0
      m_AllTileFlags: 1073741825
  - first: {x: 4, y: -4, z: 0}
    second:
      serializedVersion: 2
      m_TileIndex: 44
      m_TileSpriteIndex: 44
      m_TileMatrixIndex: 0
      m_TileColorIndex: 0
      m_TileObjectToInstantiateIndex: 65535
      dummyAlignment: 0
      m_AllTileFlags: 1073741825
  - first: {x: 5, y: -4, z: 0}
    second:
      serializedVersion: 2
      m_TileIndex: 45
      m_TileSpriteIndex: 45
      m_TileMatrixIndex: 0
      m_TileColorIndex: 0
      m_TileObjectToInstantiateIndex: 65535
      dummyAlignment: 0
      m_AllTileFlags: 1073741825
  - first: {x: 6, y: -4, z: 0}
    second:
      serializedVersion: 2
      m_TileIndex: 46
      m_TileSpriteIndex: 46
      m_TileMatrixIndex: 0
      m_TileColorIndex: 0
      m_TileObjectToInstantiateIndex: 65535
      dummyAlignment: 0
      m_AllTileFlags: 1073741825
  - first: {x: 7, y: -4, z: 0}
    second:
      serializedVersion: 2
      m_TileIndex: 47
      m_TileSpriteIndex: 47
      m_TileMatrixIndex: 0
      m_TileColorIndex: 0
      m_TileObjectToInstantiateIndex: 65535
      dummyAlignment: 0
      m_AllTileFlags: 1073741825
  - first: {x: 8, y: -4, z: 0}
    second:
      serializedVersion: 2
      m_TileIndex: 48
      m_TileSpriteIndex: 48
      m_TileMatrixIndex: 0
      m_TileColorIndex: 0
      m_TileObjectToInstantiateIndex: 65535
      dummyAlignment: 0
      m_AllTileFlags: 1073741825
  - first: {x: 9, y: -4, z: 0}
    second:
      serializedVersion: 2
      m_TileIndex: 49
      m_TileSpriteIndex: 49
      m_TileMatrixIndex: 0
      m_TileColorIndex: 0
      m_TileObjectToInstantiateIndex: 65535
      dummyAlignment: 0
      m_AllTileFlags: 1073741825
  - first: {x: 0, y: -3, z: 0}
    second:
      serializedVersion: 2
      m_TileIndex: 30
      m_TileSpriteIndex: 30
      m_TileMatrixIndex: 0
      m_TileColorIndex: 0
      m_TileObjectToInstantiateIndex: 65535
      dummyAlignment: 0
      m_AllTileFlags: 1073741825
  - first: {x: 1, y: -3, z: 0}
    second:
      serializedVersion: 2
      m_TileIndex: 31
      m_TileSpriteIndex: 31
      m_TileMatrixIndex: 0
      m_TileColorIndex: 0
      m_TileObjectToInstantiateIndex: 65535
      dummyAlignment: 0
      m_AllTileFlags: 1073741825
  - first: {x: 2, y: -3, z: 0}
    second:
      serializedVersion: 2
      m_TileIndex: 32
      m_TileSpriteIndex: 32
      m_TileMatrixIndex: 0
      m_TileColorIndex: 0
      m_TileObjectToInstantiateIndex: 65535
      dummyAlignment: 0
      m_AllTileFlags: 1073741825
  - first: {x: 3, y: -3, z: 0}
    second:
      serializedVersion: 2
      m_TileIndex: 33
      m_TileSpriteIndex: 33
      m_TileMatrixIndex: 0
      m_TileColorIndex: 0
      m_TileObjectToInstantiateIndex: 65535
      dummyAlignment: 0
      m_AllTileFlags: 1073741825
  - first: {x: 4, y: -3, z: 0}
    second:
      serializedVersion: 2
      m_TileIndex: 34
      m_TileSpriteIndex: 34
      m_TileMatrixIndex: 0
      m_TileColorIndex: 0
      m_TileObjectToInstantiateIndex: 65535
      dummyAlignment: 0
      m_AllTileFlags: 1073741825
  - first: {x: 5, y: -3, z: 0}
    second:
      serializedVersion: 2
      m_TileIndex: 35
      m_TileSpriteIndex: 35
      m_TileMatrixIndex: 0
      m_TileColorIndex: 0
      m_TileObjectToInstantiateIndex: 65535
      dummyAlignment: 0
      m_AllTileFlags: 1073741825
  - first: {x: 6, y: -3, z: 0}
    second:
      serializedVersion: 2
      m_TileIndex: 36
      m_TileSpriteIndex: 36
      m_TileMatrixIndex: 0
      m_TileColorIndex: 0
      m_TileObjectToInstantiateIndex: 65535
      dummyAlignment: 0
      m_AllTileFlags: 1073741825
  - first: {x: 7, y: -3, z: 0}
    second:
      serializedVersion: 2
      m_TileIndex: 37
      m_TileSpriteIndex: 37
      m_TileMatrixIndex: 0
      m_TileColorIndex: 0
      m_TileObjectToInstantiateIndex: 65535
      dummyAlignment: 0
      m_AllTileFlags: 1073741825
  - first: {x: 8, y: -3, z: 0}
    second:
      serializedVersion: 2
      m_TileIndex: 38
      m_TileSpriteIndex: 38
      m_TileMatrixIndex: 0
      m_TileColorIndex: 0
      m_TileObjectToInstantiateIndex: 65535
      dummyAlignment: 0
      m_AllTileFlags: 1073741825
  - first: {x: 9, y: -3, z: 0}
    second:
      serializedVersion: 2
      m_TileIndex: 39
      m_TileSpriteIndex: 39
      m_TileMatrixIndex: 0
      m_TileColorIndex: 0
      m_TileObjectToInstantiateIndex: 65535
      dummyAlignment: 0
      m_AllTileFlags: 1073741825
  - first: {x: 0, y: -2, z: 0}
    second:
      serializedVersion: 2
      m_TileIndex: 20
      m_TileSpriteIndex: 20
      m_TileMatrixIndex: 0
      m_TileColorIndex: 0
      m_TileObjectToInstantiateIndex: 65535
      dummyAlignment: 0
      m_AllTileFlags: 1073741825
  - first: {x: 1, y: -2, z: 0}
    second:
      serializedVersion: 2
      m_TileIndex: 21
      m_TileSpriteIndex: 21
      m_TileMatrixIndex: 0
      m_TileColorIndex: 0
      m_TileObjectToInstantiateIndex: 65535
      dummyAlignment: 0
      m_AllTileFlags: 1073741825
  - first: {x: 2, y: -2, z: 0}
    second:
      serializedVersion: 2
      m_TileIndex: 22
      m_TileSpriteIndex: 22
      m_TileMatrixIndex: 0
      m_TileColorIndex: 0
      m_TileObjectToInstantiateIndex: 65535
      dummyAlignment: 0
      m_AllTileFlags: 1073741825
  - first: {x: 3, y: -2, z: 0}
    second:
      serializedVersion: 2
      m_TileIndex: 23
      m_TileSpriteIndex: 23
      m_TileMatrixIndex: 0
      m_TileColorIndex: 0
      m_TileObjectToInstantiateIndex: 65535
      dummyAlignment: 0
      m_AllTileFlags: 1073741825
  - first: {x: 4, y: -2, z: 0}
    second:
      serializedVersion: 2
      m_TileIndex: 24
      m_TileSpriteIndex: 24
      m_TileMatrixIndex: 0
      m_TileColorIndex: 0
      m_TileObjectToInstantiateIndex: 65535
      dummyAlignment: 0
      m_AllTileFlags: 1073741825
  - first: {x: 5, y: -2, z: 0}
    second:
      serializedVersion: 2
      m_TileIndex: 25
      m_TileSpriteIndex: 25
      m_TileMatrixIndex: 0
      m_TileColorIndex: 0
      m_TileObjectToInstantiateIndex: 65535
      dummyAlignment: 0
      m_AllTileFlags: 1073741825
  - first: {x: 6, y: -2, z: 0}
    second:
      serializedVersion: 2
      m_TileIndex: 26
      m_TileSpriteIndex: 26
      m_TileMatrixIndex: 0
      m_TileColorIndex: 0
      m_TileObjectToInstantiateIndex: 65535
      dummyAlignment: 0
      m_AllTileFlags: 1073741825
  - first: {x: 7, y: -2, z: 0}
    second:
      serializedVersion: 2
      m_TileIndex: 27
      m_TileSpriteIndex: 27
      m_TileMatrixIndex: 0
      m_TileColorIndex: 0
      m_TileObjectToInstantiateIndex: 65535
      dummyAlignment: 0
      m_AllTileFlags: 1073741825
  - first: {x: 8, y: -2, z: 0}
    second:
      serializedVersion: 2
      m_TileIndex: 28
      m_TileSpriteIndex: 28
      m_TileMatrixIndex: 0
      m_TileColorIndex: 0
      m_TileObjectToInstantiateIndex: 65535
      dummyAlignment: 0
      m_AllTileFlags: 1073741825
  - first: {x: 9, y: -2, z: 0}
    second:
      serializedVersion: 2
      m_TileIndex: 29
      m_TileSpriteIndex: 29
      m_TileMatrixIndex: 0
      m_TileColorIndex: 0
      m_TileObjectToInstantiateIndex: 65535
      dummyAlignment: 0
      m_AllTileFlags: 1073741825
  - first: {x: 0, y: -1, z: 0}
    second:
      serializedVersion: 2
      m_TileIndex: 10
      m_TileSpriteIndex: 10
      m_TileMatrixIndex: 0
      m_TileColorIndex: 0
      m_TileObjectToInstantiateIndex: 65535
      dummyAlignment: 0
      m_AllTileFlags: 1073741825
  - first: {x: 1, y: -1, z: 0}
    second:
      serializedVersion: 2
      m_TileIndex: 11
      m_TileSpriteIndex: 11
      m_TileMatrixIndex: 0
      m_TileColorIndex: 0
      m_TileObjectToInstantiateIndex: 65535
      dummyAlignment: 0
      m_AllTileFlags: 1073741825
  - first: {x: 2, y: -1, z: 0}
    second:
      serializedVersion: 2
      m_TileIndex: 12
      m_TileSpriteIndex: 12
      m_TileMatrixIndex: 0
      m_TileColorIndex: 0
      m_TileObjectToInstantiateIndex: 65535
      dummyAlignment: 0
      m_AllTileFlags: 1073741825
  - first: {x: 3, y: -1, z: 0}
    second:
      serializedVersion: 2
      m_TileIndex: 13
      m_TileSpriteIndex: 13
      m_TileMatrixIndex: 0
      m_TileColorIndex: 0
      m_TileObjectToInstantiateIndex: 65535
      dummyAlignment: 0
      m_AllTileFlags: 1073741825
  - first: {x: 4, y: -1, z: 0}
    second:
      serializedVersion: 2
      m_TileIndex: 14
      m_TileSpriteIndex: 14
      m_TileMatrixIndex: 0
      m_TileColorIndex: 0
      m_TileObjectToInstantiateIndex: 65535
      dummyAlignment: 0
      m_AllTileFlags: 1073741825
  - first: {x: 5, y: -1, z: 0}
    second:
      serializedVersion: 2
      m_TileIndex: 15
      m_TileSpriteIndex: 15
      m_TileMatrixIndex: 0
      m_TileColorIndex: 0
      m_TileObjectToInstantiateIndex: 65535
      dummyAlignment: 0
      m_AllTileFlags: 1073741825
  - first: {x: 6, y: -1, z: 0}
    second:
      serializedVersion: 2
      m_TileIndex: 16
      m_TileSpriteIndex: 16
      m_TileMatrixIndex: 0
      m_TileColorIndex: 0
      m_TileObjectToInstantiateIndex: 65535
      dummyAlignment: 0
      m_AllTileFlags: 1073741825
  - first: {x: 7, y: -1, z: 0}
    second:
      serializedVersion: 2
      m_TileIndex: 17
      m_TileSpriteIndex: 17
      m_TileMatrixIndex: 0
      m_TileColorIndex: 0
      m_TileObjectToInstantiateIndex: 65535
      dummyAlignment: 0
      m_AllTileFlags: 1073741825
  - first: {x: 8, y: -1, z: 0}
    second:
      serializedVersion: 2
      m_TileIndex: 18
      m_TileSpriteIndex: 18
      m_TileMatrixIndex: 0
      m_TileColorIndex: 0
      m_TileObjectToInstantiateIndex: 65535
      dummyAlignment: 0
      m_AllTileFlags: 1073741825
  - first: {x: 9, y: -1, z: 0}
    second:
      serializedVersion: 2
      m_TileIndex: 19
      m_TileSpriteIndex: 19
      m_TileMatrixIndex: 0
      m_TileColorIndex: 0
      m_TileObjectToInstantiateIndex: 65535
      dummyAlignment: 0
      m_AllTileFlags: 1073741825
  - first: {x: 0, y: 0, z: 0}
    second:
      serializedVersion: 2
      m_TileIndex: 0
      m_TileSpriteIndex: 0
      m_TileMatrixIndex: 0
      m_TileColorIndex: 0
      m_TileObjectToInstantiateIndex: 65535
      dummyAlignment: 0
      m_AllTileFlags: 1073741825
  - first: {x: 1, y: 0, z: 0}
    second:
      serializedVersion: 2
      m_TileIndex: 1
      m_TileSpriteIndex: 1
      m_TileMatrixIndex: 0
      m_TileColorIndex: 0
      m_TileObjectToInstantiateIndex: 65535
      dummyAlignment: 0
      m_AllTileFlags: 1073741825
  - first: {x: 2, y: 0, z: 0}
    second:
      serializedVersion: 2
      m_TileIndex: 2
      m_TileSpriteIndex: 2
      m_TileMatrixIndex: 0
      m_TileColorIndex: 0
      m_TileObjectToInstantiateIndex: 65535
      dummyAlignment: 0
      m_AllTileFlags: 1073741825
  - first: {x: 3, y: 0, z: 0}
    second:
      serializedVersion: 2
      m_TileIndex: 3
      m_TileSpriteIndex: 3
      m_TileMatrixIndex: 0
      m_TileColorIndex: 0
      m_TileObjectToInstantiateIndex: 65535
      dummyAlignment: 0
      m_AllTileFlags: 1073741825
  - first: {x: 4, y: 0, z: 0}
    second:
      serializedVersion: 2
      m_TileIndex: 4
      m_TileSpriteIndex: 4
      m_TileMatrixIndex: 0
      m_TileColorIndex: 0
      m_TileObjectToInstantiateIndex: 65535
      dummyAlignment: 0
      m_AllTileFlags: 1073741825
  - first: {x: 5, y: 0, z: 0}
    second:
      serializedVersion: 2
      m_TileIndex: 5
      m_TileSpriteIndex: 5
      m_TileMatrixIndex: 0
      m_TileColorIndex: 0
      m_TileObjectToInstantiateIndex: 65535
      dummyAlignment: 0
      m_AllTileFlags: 1073741825
  - first: {x: 6, y: 0, z: 0}
    second:
      serializedVersion: 2
      m_TileIndex: 6
      m_TileSpriteIndex: 6
      m_TileMatrixIndex: 0
      m_TileColorIndex: 0
      m_TileObjectToInstantiateIndex: 65535
      dummyAlignment: 0
      m_AllTileFlags: 1073741825
  - first: {x: 7, y: 0, z: 0}
    second:
      serializedVersion: 2
      m_TileIndex: 7
      m_TileSpriteIndex: 7
      m_TileMatrixIndex: 0
      m_TileColorIndex: 0
      m_TileObjectToInstantiateIndex: 65535
      dummyAlignment: 0
      m_AllTileFlags: 1073741825
  - first: {x: 8, y: 0, z: 0}
    second:
      serializedVersion: 2
      m_TileIndex: 8
      m_TileSpriteIndex: 8
      m_TileMatrixIndex: 0
      m_TileColorIndex: 0
      m_TileObjectToInstantiateIndex: 65535
      dummyAlignment: 0
      m_AllTileFlags: 1073741825
  - first: {x: 9, y: 0, z: 0}
    second:
      serializedVersion: 2
      m_TileIndex: 9
      m_TileSpriteIndex: 9
      m_TileMatrixIndex: 0
      m_TileColorIndex: 0
      m_TileObjectToInstantiateIndex: 65535
      dummyAlignment: 0
      m_AllTileFlags: 1073741825
  m_AnimatedTiles: {}
  m_TileAssetArray:
  - m_RefCount: 1
    m_Data: {fileID: 11400000, guid: 096e8a51af5a3bd42a187ac8b5f22551, type: 2}
  - m_RefCount: 1
    m_Data: {fileID: 11400000, guid: 6e8e49c606e3eee418a3021631c5f76c, type: 2}
  - m_RefCount: 1
    m_Data: {fileID: 11400000, guid: 1f535c2d52fecc546a6bc9f4b1d9c8af, type: 2}
  - m_RefCount: 1
    m_Data: {fileID: 11400000, guid: e07df211d13319b4aa7f6a37bca7348a, type: 2}
  - m_RefCount: 1
    m_Data: {fileID: 11400000, guid: 025db2419020c1b4d85b45389e76065b, type: 2}
  - m_RefCount: 1
    m_Data: {fileID: 11400000, guid: 92b8b983a85275d40890dd9426d81401, type: 2}
  - m_RefCount: 1
    m_Data: {fileID: 11400000, guid: d5770aeec43a6aa44adf5a8e5e8ba89b, type: 2}
  - m_RefCount: 1
    m_Data: {fileID: 11400000, guid: 97ccbc9aabda48f4f88f3fbe30f4d56a, type: 2}
  - m_RefCount: 1
    m_Data: {fileID: 11400000, guid: af00892521d62f94988b782c52ca63a3, type: 2}
  - m_RefCount: 1
    m_Data: {fileID: 11400000, guid: beb3706819c318e42b8ce93298b9a3be, type: 2}
  - m_RefCount: 1
    m_Data: {fileID: 11400000, guid: 5941a8f55e5725e4aaaf0bddfcfbeb60, type: 2}
  - m_RefCount: 1
    m_Data: {fileID: 11400000, guid: 1770261378afdde46a118eaec2f44bb1, type: 2}
  - m_RefCount: 1
    m_Data: {fileID: 11400000, guid: 67bd106a23ce82a409cb4452f467a3dc, type: 2}
  - m_RefCount: 1
    m_Data: {fileID: 11400000, guid: 2e2b27af6e8dbd24380027eac70a75be, type: 2}
  - m_RefCount: 1
    m_Data: {fileID: 11400000, guid: 0d7c16a1c73cd6c4fbbed105cbf32d7d, type: 2}
  - m_RefCount: 1
    m_Data: {fileID: 11400000, guid: 497a6def1b1166f4d99b13b04e78a532, type: 2}
  - m_RefCount: 1
    m_Data: {fileID: 11400000, guid: 486624918480c974ca420ed561a1cdc3, type: 2}
  - m_RefCount: 1
    m_Data: {fileID: 11400000, guid: 4e44138a4c36e5b4cba2fa800af23bd5, type: 2}
  - m_RefCount: 1
    m_Data: {fileID: 11400000, guid: 7aabd896fa9c05341a7b2f2ee1bdf661, type: 2}
  - m_RefCount: 1
    m_Data: {fileID: 11400000, guid: b438d9217dd13fa478afac54a535ad1b, type: 2}
  - m_RefCount: 1
    m_Data: {fileID: 11400000, guid: 97d288ebec7c4a84395532d12a6529cd, type: 2}
  - m_RefCount: 1
    m_Data: {fileID: 11400000, guid: 72762a8364c6e724b8e0989e35c48a77, type: 2}
  - m_RefCount: 1
    m_Data: {fileID: 11400000, guid: 90a78fd70abf4a74aaac0037c327cb15, type: 2}
  - m_RefCount: 1
    m_Data: {fileID: 11400000, guid: b6c6044b3f74e06449be5c5baeb7aa69, type: 2}
  - m_RefCount: 1
    m_Data: {fileID: 11400000, guid: 63dee20b9b846834d88bfb3eb8782d8a, type: 2}
  - m_RefCount: 1
    m_Data: {fileID: 11400000, guid: dbdb9b0afcf8b1341914a5fe9fcdc19d, type: 2}
  - m_RefCount: 1
    m_Data: {fileID: 11400000, guid: 5e99c6ad43b0e5147b638ca1a99eb319, type: 2}
  - m_RefCount: 1
    m_Data: {fileID: 11400000, guid: 887853bfb8c73f24f8539353844239cd, type: 2}
  - m_RefCount: 1
    m_Data: {fileID: 11400000, guid: 48d504d2a58c8a640a11d1da01b39e5f, type: 2}
  - m_RefCount: 1
    m_Data: {fileID: 11400000, guid: 0bbf58ad0c14e3944b1b82ba7316b273, type: 2}
  - m_RefCount: 1
    m_Data: {fileID: 11400000, guid: 5b179b35caa55644e9468da1d78676c6, type: 2}
  - m_RefCount: 1
    m_Data: {fileID: 11400000, guid: 6567534a2a210e948992f3473bf75bad, type: 2}
  - m_RefCount: 1
    m_Data: {fileID: 11400000, guid: 3b230ead0e469d845bb70c25cfeae066, type: 2}
  - m_RefCount: 1
    m_Data: {fileID: 11400000, guid: fa4b7bba814394b45b123a439b5f74f5, type: 2}
  - m_RefCount: 1
    m_Data: {fileID: 11400000, guid: cb15142f076e2824588b0315a45ef132, type: 2}
  - m_RefCount: 1
    m_Data: {fileID: 11400000, guid: e1e7557c3e0d50c4fad8d26e9ebccd81, type: 2}
  - m_RefCount: 1
    m_Data: {fileID: 11400000, guid: 243b51daae72b034cae9fa9e3ec7e53b, type: 2}
  - m_RefCount: 1
    m_Data: {fileID: 11400000, guid: 9dd817e4ed159bb4ab789ba941a154ac, type: 2}
  - m_RefCount: 1
    m_Data: {fileID: 11400000, guid: cd755e62a9c3e2348808c318bf3e015c, type: 2}
  - m_RefCount: 1
    m_Data: {fileID: 11400000, guid: 600e4126967fb8f44a7d4c3a98bfe9c9, type: 2}
  - m_RefCount: 1
    m_Data: {fileID: 11400000, guid: 938ecc740e1f01b4783b53344c49e375, type: 2}
  - m_RefCount: 1
    m_Data: {fileID: 11400000, guid: 20702814ff72c6a48b5d26eb3e515ccd, type: 2}
  - m_RefCount: 1
    m_Data: {fileID: 11400000, guid: 3a91bb83430ee8a488f56837f720180f, type: 2}
  - m_RefCount: 1
    m_Data: {fileID: 11400000, guid: 5da6a065d81dc0842b0dc83ebfd123e4, type: 2}
  - m_RefCount: 1
    m_Data: {fileID: 11400000, guid: 34f42b12dfddb914fb1008e7cc8c94d0, type: 2}
  - m_RefCount: 1
    m_Data: {fileID: 11400000, guid: 3e8358ccfe98d4c45af7087857848122, type: 2}
  - m_RefCount: 1
    m_Data: {fileID: 11400000, guid: b232c95e2f2ef184aa414a3d3fb110f9, type: 2}
  - m_RefCount: 1
    m_Data: {fileID: 11400000, guid: fc8327895fa3d5a4a8516006ffa8b995, type: 2}
  - m_RefCount: 1
    m_Data: {fileID: 11400000, guid: 4e5b905a340ca5b428fe2bc35e443bb1, type: 2}
  - m_RefCount: 1
    m_Data: {fileID: 11400000, guid: 0ecda857331904842924e4af55dbd1dc, type: 2}
  - m_RefCount: 1
    m_Data: {fileID: 11400000, guid: 96f349c7e794a6740b8defb4637d9fa7, type: 2}
  - m_RefCount: 1
    m_Data: {fileID: 11400000, guid: c3c25f400e896dc44865850136226bd1, type: 2}
  - m_RefCount: 1
    m_Data: {fileID: 11400000, guid: dacd54866c7e3ad498eb09bb64faf119, type: 2}
  - m_RefCount: 1
    m_Data: {fileID: 11400000, guid: d6c5f754b0750a34d9fbaebe4617fbc6, type: 2}
  - m_RefCount: 1
    m_Data: {fileID: 11400000, guid: 480c7500fb6f9e943bf31a443c003151, type: 2}
  - m_RefCount: 1
    m_Data: {fileID: 11400000, guid: c7a0ebd2777802e48b80160042a8663f, type: 2}
  - m_RefCount: 1
    m_Data: {fileID: 11400000, guid: c16c9429c137165449526735a5bf2895, type: 2}
  - m_RefCount: 1
    m_Data: {fileID: 11400000, guid: 4054e45902cf8074593d5e959d0d4bd5, type: 2}
  - m_RefCount: 1
    m_Data: {fileID: 11400000, guid: 63b995beb9c6bcd4b9d8cc5b5971b758, type: 2}
  - m_RefCount: 1
    m_Data: {fileID: 11400000, guid: 447dd4d39e71c444f96fc8b31c54fd88, type: 2}
  - m_RefCount: 1
    m_Data: {fileID: 11400000, guid: 721009e628dc01a4f9abaada40004107, type: 2}
  - m_RefCount: 1
    m_Data: {fileID: 11400000, guid: b2c67f8dadf8768419f1d74537da9836, type: 2}
  - m_RefCount: 1
    m_Data: {fileID: 11400000, guid: 37a2537e1f864d8468fa9abb4b5faf43, type: 2}
  - m_RefCount: 1
    m_Data: {fileID: 11400000, guid: b2c320db71b18e6449b8910056b155ba, type: 2}
  - m_RefCount: 1
    m_Data: {fileID: 11400000, guid: aa10120edf788d945a64947fb0dccf94, type: 2}
  - m_RefCount: 1
    m_Data: {fileID: 11400000, guid: da6f270f006387a408cf4982e23e45a9, type: 2}
  - m_RefCount: 1
    m_Data: {fileID: 11400000, guid: 3df1f7bedba5355469bf24fc918a56b2, type: 2}
  - m_RefCount: 1
    m_Data: {fileID: 11400000, guid: c1b7135fb0f67fd44a0fdd42821c3924, type: 2}
  - m_RefCount: 1
    m_Data: {fileID: 11400000, guid: ad78b074555b6d443a5f89bb76ce55f5, type: 2}
  - m_RefCount: 1
    m_Data: {fileID: 11400000, guid: f35cd7fe580b24546bbc16506ed55243, type: 2}
  - m_RefCount: 1
    m_Data: {fileID: 11400000, guid: 6afef184818611d46a173be38970e480, type: 2}
  - m_RefCount: 1
    m_Data: {fileID: 11400000, guid: 7ce7a22b5ad1ec3478c35751f8be7b15, type: 2}
  - m_RefCount: 1
    m_Data: {fileID: 11400000, guid: 3372f2f4a6200eb41b4d038070fd1b37, type: 2}
  - m_RefCount: 1
    m_Data: {fileID: 11400000, guid: 5eb4cf1225fe9d542adb6650296efdd2, type: 2}
  - m_RefCount: 1
    m_Data: {fileID: 11400000, guid: 94302998d43e57942963e1dbf452688c, type: 2}
  - m_RefCount: 1
    m_Data: {fileID: 11400000, guid: 31d188452ef7cb04bb8fc27649b46093, type: 2}
  - m_RefCount: 1
    m_Data: {fileID: 11400000, guid: 8843d2bda75c46040b7dca36dd62bdd3, type: 2}
  - m_RefCount: 1
    m_Data: {fileID: 11400000, guid: 24e5a70b32d2d6d478ab6e18c466e0b0, type: 2}
  - m_RefCount: 1
    m_Data: {fileID: 11400000, guid: 17b5f27541363a84da54e590b42ddcb6, type: 2}
  - m_RefCount: 1
    m_Data: {fileID: 11400000, guid: 2bb04a9a3b113894fb36d25723c6da2e, type: 2}
  - m_RefCount: 1
    m_Data: {fileID: 11400000, guid: abc0d6c6b9d20d147a25790ee3495f9e, type: 2}
  - m_RefCount: 1
    m_Data: {fileID: 11400000, guid: d332586bdfb41574c9aaf060e2b72323, type: 2}
  - m_RefCount: 1
    m_Data: {fileID: 11400000, guid: 576dd0f3d1c9c7c4896b08338c5bac93, type: 2}
  - m_RefCount: 1
    m_Data: {fileID: 11400000, guid: 479ad89cc860f2f4b87fa6490c323b07, type: 2}
  - m_RefCount: 1
    m_Data: {fileID: 11400000, guid: 111ecb0d284c7dd4fb2bf86784a0201a, type: 2}
  - m_RefCount: 1
    m_Data: {fileID: 11400000, guid: b3c61fa7f0e383b489f2a8f2b31073a4, type: 2}
  - m_RefCount: 1
    m_Data: {fileID: 11400000, guid: bc2d7f965a70ade44aeca963e9e7e8ec, type: 2}
  - m_RefCount: 1
    m_Data: {fileID: 11400000, guid: 80f27e747cc5ab947b46fbeb7b0d04e2, type: 2}
  - m_RefCount: 1
    m_Data: {fileID: 11400000, guid: d39e024807605774db453d2d120921a7, type: 2}
  - m_RefCount: 1
    m_Data: {fileID: 11400000, guid: 16ec939fe0fea5f4c86efc1c41e954cc, type: 2}
  - m_RefCount: 1
    m_Data: {fileID: 11400000, guid: f8e0f1052b2900f4ca870a326b28ce74, type: 2}
  - m_RefCount: 1
    m_Data: {fileID: 11400000, guid: 4224e4247d918ba46b42d956b33139b9, type: 2}
  - m_RefCount: 1
    m_Data: {fileID: 11400000, guid: a3973b6b1b6bad749b920af4cd3a2c0a, type: 2}
  - m_RefCount: 1
    m_Data: {fileID: 11400000, guid: 7e3083b8a67f50149b20b4b9a7226939, type: 2}
  - m_RefCount: 1
    m_Data: {fileID: 11400000, guid: 50edbe0b8c4d0674a8f62e59d6262465, type: 2}
  m_TileSpriteArray:
  - m_RefCount: 1
    m_Data: {fileID: 1720994617, guid: 58724549903e1d345a77b71703db2e1a, type: 3}
  - m_RefCount: 1
    m_Data: {fileID: -155338092, guid: 58724549903e1d345a77b71703db2e1a, type: 3}
  - m_RefCount: 1
    m_Data: {fileID: -821329777, guid: 58724549903e1d345a77b71703db2e1a, type: 3}
  - m_RefCount: 1
    m_Data: {fileID: -790528481, guid: 58724549903e1d345a77b71703db2e1a, type: 3}
  - m_RefCount: 1
    m_Data: {fileID: 1153951822, guid: 58724549903e1d345a77b71703db2e1a, type: 3}
  - m_RefCount: 1
    m_Data: {fileID: -1315455749, guid: 58724549903e1d345a77b71703db2e1a, type: 3}
  - m_RefCount: 1
    m_Data: {fileID: 287677504, guid: 58724549903e1d345a77b71703db2e1a, type: 3}
  - m_RefCount: 1
    m_Data: {fileID: 1264169352, guid: 58724549903e1d345a77b71703db2e1a, type: 3}
  - m_RefCount: 1
    m_Data: {fileID: -31378053, guid: 58724549903e1d345a77b71703db2e1a, type: 3}
  - m_RefCount: 1
    m_Data: {fileID: -179830907, guid: 58724549903e1d345a77b71703db2e1a, type: 3}
  - m_RefCount: 1
    m_Data: {fileID: 1735198058, guid: 58724549903e1d345a77b71703db2e1a, type: 3}
  - m_RefCount: 1
    m_Data: {fileID: 619296718, guid: 58724549903e1d345a77b71703db2e1a, type: 3}
  - m_RefCount: 1
    m_Data: {fileID: 1107315029, guid: 58724549903e1d345a77b71703db2e1a, type: 3}
  - m_RefCount: 1
    m_Data: {fileID: 66444477, guid: 58724549903e1d345a77b71703db2e1a, type: 3}
  - m_RefCount: 1
    m_Data: {fileID: -943854315, guid: 58724549903e1d345a77b71703db2e1a, type: 3}
  - m_RefCount: 1
    m_Data: {fileID: 28352666, guid: 58724549903e1d345a77b71703db2e1a, type: 3}
  - m_RefCount: 1
    m_Data: {fileID: -582395142, guid: 58724549903e1d345a77b71703db2e1a, type: 3}
  - m_RefCount: 1
    m_Data: {fileID: -1277136606, guid: 58724549903e1d345a77b71703db2e1a, type: 3}
  - m_RefCount: 1
    m_Data: {fileID: 281992266, guid: 58724549903e1d345a77b71703db2e1a, type: 3}
  - m_RefCount: 1
    m_Data: {fileID: 1797023750, guid: 58724549903e1d345a77b71703db2e1a, type: 3}
  - m_RefCount: 1
    m_Data: {fileID: 927160850, guid: 58724549903e1d345a77b71703db2e1a, type: 3}
  - m_RefCount: 1
    m_Data: {fileID: 689683297, guid: 58724549903e1d345a77b71703db2e1a, type: 3}
  - m_RefCount: 1
    m_Data: {fileID: 1023795180, guid: 58724549903e1d345a77b71703db2e1a, type: 3}
  - m_RefCount: 1
    m_Data: {fileID: 1960094244, guid: 58724549903e1d345a77b71703db2e1a, type: 3}
  - m_RefCount: 1
    m_Data: {fileID: 1871092066, guid: 58724549903e1d345a77b71703db2e1a, type: 3}
  - m_RefCount: 1
    m_Data: {fileID: -1208962360, guid: 58724549903e1d345a77b71703db2e1a, type: 3}
  - m_RefCount: 1
    m_Data: {fileID: -1847398607, guid: 58724549903e1d345a77b71703db2e1a, type: 3}
  - m_RefCount: 1
    m_Data: {fileID: 1339721375, guid: 58724549903e1d345a77b71703db2e1a, type: 3}
  - m_RefCount: 1
    m_Data: {fileID: 1964854584, guid: 58724549903e1d345a77b71703db2e1a, type: 3}
  - m_RefCount: 1
    m_Data: {fileID: -189585447, guid: 58724549903e1d345a77b71703db2e1a, type: 3}
  - m_RefCount: 1
    m_Data: {fileID: -540961944, guid: 58724549903e1d345a77b71703db2e1a, type: 3}
  - m_RefCount: 1
    m_Data: {fileID: 914369694, guid: 58724549903e1d345a77b71703db2e1a, type: 3}
  - m_RefCount: 1
    m_Data: {fileID: 1027019136, guid: 58724549903e1d345a77b71703db2e1a, type: 3}
  - m_RefCount: 1
    m_Data: {fileID: 180706523, guid: 58724549903e1d345a77b71703db2e1a, type: 3}
  - m_RefCount: 1
    m_Data: {fileID: 274510163, guid: 58724549903e1d345a77b71703db2e1a, type: 3}
  - m_RefCount: 1
    m_Data: {fileID: -1386270977, guid: 58724549903e1d345a77b71703db2e1a, type: 3}
  - m_RefCount: 1
    m_Data: {fileID: -1517008502, guid: 58724549903e1d345a77b71703db2e1a, type: 3}
  - m_RefCount: 1
    m_Data: {fileID: -894708735, guid: 58724549903e1d345a77b71703db2e1a, type: 3}
  - m_RefCount: 1
    m_Data: {fileID: 764615946, guid: 58724549903e1d345a77b71703db2e1a, type: 3}
  - m_RefCount: 1
    m_Data: {fileID: -1830921038, guid: 58724549903e1d345a77b71703db2e1a, type: 3}
  - m_RefCount: 1
    m_Data: {fileID: -1344548388, guid: 58724549903e1d345a77b71703db2e1a, type: 3}
  - m_RefCount: 1
    m_Data: {fileID: -274416020, guid: 58724549903e1d345a77b71703db2e1a, type: 3}
  - m_RefCount: 1
    m_Data: {fileID: -457909095, guid: 58724549903e1d345a77b71703db2e1a, type: 3}
  - m_RefCount: 1
    m_Data: {fileID: 575142052, guid: 58724549903e1d345a77b71703db2e1a, type: 3}
  - m_RefCount: 1
    m_Data: {fileID: 1761665423, guid: 58724549903e1d345a77b71703db2e1a, type: 3}
  - m_RefCount: 1
    m_Data: {fileID: 263430127, guid: 58724549903e1d345a77b71703db2e1a, type: 3}
  - m_RefCount: 1
    m_Data: {fileID: 1961443230, guid: 58724549903e1d345a77b71703db2e1a, type: 3}
  - m_RefCount: 1
    m_Data: {fileID: 1049461385, guid: 58724549903e1d345a77b71703db2e1a, type: 3}
  - m_RefCount: 1
    m_Data: {fileID: 388018519, guid: 58724549903e1d345a77b71703db2e1a, type: 3}
  - m_RefCount: 1
    m_Data: {fileID: 255704191, guid: 58724549903e1d345a77b71703db2e1a, type: 3}
  - m_RefCount: 1
    m_Data: {fileID: -79648921, guid: 58724549903e1d345a77b71703db2e1a, type: 3}
  - m_RefCount: 1
    m_Data: {fileID: -668427740, guid: 58724549903e1d345a77b71703db2e1a, type: 3}
  - m_RefCount: 1
    m_Data: {fileID: -122537383, guid: 58724549903e1d345a77b71703db2e1a, type: 3}
  - m_RefCount: 1
    m_Data: {fileID: -1767703197, guid: 58724549903e1d345a77b71703db2e1a, type: 3}
  - m_RefCount: 1
    m_Data: {fileID: -234403685, guid: 58724549903e1d345a77b71703db2e1a, type: 3}
  - m_RefCount: 1
    m_Data: {fileID: 1905390119, guid: 58724549903e1d345a77b71703db2e1a, type: 3}
  - m_RefCount: 1
    m_Data: {fileID: -784338133, guid: 58724549903e1d345a77b71703db2e1a, type: 3}
  - m_RefCount: 1
    m_Data: {fileID: -348784815, guid: 58724549903e1d345a77b71703db2e1a, type: 3}
  - m_RefCount: 1
    m_Data: {fileID: 1507863607, guid: 58724549903e1d345a77b71703db2e1a, type: 3}
  - m_RefCount: 1
    m_Data: {fileID: -111919404, guid: 58724549903e1d345a77b71703db2e1a, type: 3}
  - m_RefCount: 1
    m_Data: {fileID: 1791524148, guid: 58724549903e1d345a77b71703db2e1a, type: 3}
  - m_RefCount: 1
    m_Data: {fileID: -932269985, guid: 58724549903e1d345a77b71703db2e1a, type: 3}
  - m_RefCount: 1
    m_Data: {fileID: -809169787, guid: 58724549903e1d345a77b71703db2e1a, type: 3}
  - m_RefCount: 1
    m_Data: {fileID: 2142371828, guid: 58724549903e1d345a77b71703db2e1a, type: 3}
  - m_RefCount: 1
    m_Data: {fileID: -1211642984, guid: 58724549903e1d345a77b71703db2e1a, type: 3}
  - m_RefCount: 1
    m_Data: {fileID: 1265976678, guid: 58724549903e1d345a77b71703db2e1a, type: 3}
  - m_RefCount: 1
    m_Data: {fileID: -1077811761, guid: 58724549903e1d345a77b71703db2e1a, type: 3}
  - m_RefCount: 1
    m_Data: {fileID: -750746441, guid: 58724549903e1d345a77b71703db2e1a, type: 3}
  - m_RefCount: 1
    m_Data: {fileID: 1493144405, guid: 58724549903e1d345a77b71703db2e1a, type: 3}
  - m_RefCount: 1
    m_Data: {fileID: -1089561684, guid: 58724549903e1d345a77b71703db2e1a, type: 3}
  - m_RefCount: 1
    m_Data: {fileID: -1437888823, guid: 58724549903e1d345a77b71703db2e1a, type: 3}
  - m_RefCount: 1
    m_Data: {fileID: -573270224, guid: 58724549903e1d345a77b71703db2e1a, type: 3}
  - m_RefCount: 1
    m_Data: {fileID: 604715195, guid: 58724549903e1d345a77b71703db2e1a, type: 3}
  - m_RefCount: 1
    m_Data: {fileID: -1400297993, guid: 58724549903e1d345a77b71703db2e1a, type: 3}
  - m_RefCount: 1
    m_Data: {fileID: 448707919, guid: 58724549903e1d345a77b71703db2e1a, type: 3}
  - m_RefCount: 1
    m_Data: {fileID: -671842948, guid: 58724549903e1d345a77b71703db2e1a, type: 3}
  - m_RefCount: 1
    m_Data: {fileID: -2067123584, guid: 58724549903e1d345a77b71703db2e1a, type: 3}
  - m_RefCount: 1
    m_Data: {fileID: -72475731, guid: 58724549903e1d345a77b71703db2e1a, type: 3}
  - m_RefCount: 1
    m_Data: {fileID: 1229315962, guid: 58724549903e1d345a77b71703db2e1a, type: 3}
  - m_RefCount: 1
    m_Data: {fileID: -1187967313, guid: 58724549903e1d345a77b71703db2e1a, type: 3}
  - m_RefCount: 1
    m_Data: {fileID: 206397665, guid: 58724549903e1d345a77b71703db2e1a, type: 3}
  - m_RefCount: 1
    m_Data: {fileID: 1242480805, guid: 58724549903e1d345a77b71703db2e1a, type: 3}
  - m_RefCount: 1
    m_Data: {fileID: 96157472, guid: 58724549903e1d345a77b71703db2e1a, type: 3}
  - m_RefCount: 1
    m_Data: {fileID: -1897693899, guid: 58724549903e1d345a77b71703db2e1a, type: 3}
  - m_RefCount: 1
    m_Data: {fileID: -1668498619, guid: 58724549903e1d345a77b71703db2e1a, type: 3}
  - m_RefCount: 1
    m_Data: {fileID: -985193862, guid: 58724549903e1d345a77b71703db2e1a, type: 3}
  - m_RefCount: 1
    m_Data: {fileID: -2002607825, guid: 58724549903e1d345a77b71703db2e1a, type: 3}
  - m_RefCount: 1
    m_Data: {fileID: 943258443, guid: 58724549903e1d345a77b71703db2e1a, type: 3}
  - m_RefCount: 1
    m_Data: {fileID: -1371304647, guid: 58724549903e1d345a77b71703db2e1a, type: 3}
  - m_RefCount: 1
    m_Data: {fileID: -385911908, guid: 58724549903e1d345a77b71703db2e1a, type: 3}
  - m_RefCount: 1
    m_Data: {fileID: 961726327, guid: 58724549903e1d345a77b71703db2e1a, type: 3}
  - m_RefCount: 1
    m_Data: {fileID: -1669153692, guid: 58724549903e1d345a77b71703db2e1a, type: 3}
  - m_RefCount: 1
    m_Data: {fileID: -2050487008, guid: 58724549903e1d345a77b71703db2e1a, type: 3}
  - m_RefCount: 1
    m_Data: {fileID: -84895686, guid: 58724549903e1d345a77b71703db2e1a, type: 3}
  - m_RefCount: 1
    m_Data: {fileID: 300987936, guid: 58724549903e1d345a77b71703db2e1a, type: 3}
  m_TileMatrixArray:
  - m_RefCount: 95
    m_Data:
      e00: 1
      e01: 0
      e02: 0
      e03: 0
      e10: 0
      e11: 1
      e12: 0
      e13: 0
      e20: 0
      e21: 0
      e22: 1
      e23: 0
      e30: 0
      e31: 0
      e32: 0
      e33: 1
  m_TileColorArray:
  - m_RefCount: 95
    m_Data: {r: 1, g: 1, b: 1, a: 1}
  m_TileObjectToInstantiateArray: []
  m_AnimationFrameRate: 1
  m_Color: {r: 1, g: 1, b: 1, a: 1}
  m_Origin: {x: 0, y: -9, z: 0}
  m_Size: {x: 10, y: 10, z: 1}
  m_TileAnchor: {x: 0.5, y: 0.5, z: 0}
  m_TileOrientation: 0
  m_TileOrientationMatrix:
    e00: 1
    e01: 0
    e02: 0
    e03: 0
    e10: 0
    e11: 1
    e12: 0
    e13: 0
    e20: 0
    e21: 0
    e22: 1
    e23: 0
    e30: 0
    e31: 0
    e32: 0
    e33: 1
--- !u!483693784 &438028765534581422
TilemapRenderer:
  m_ObjectHideFlags: 0
  m_CorrespondingSourceObject: {fileID: 0}
  m_PrefabInstance: {fileID: 0}
  m_PrefabAsset: {fileID: 0}
  m_GameObject: {fileID: 2669395891172394064}
  m_Enabled: 1
  m_CastShadows: 0
  m_ReceiveShadows: 0
  m_DynamicOccludee: 0
  m_StaticShadowCaster: 0
  m_MotionVectors: 1
  m_LightProbeUsage: 0
  m_ReflectionProbeUsage: 0
  m_RayTracingMode: 0
  m_RayTraceProcedural: 0
  m_RenderingLayerMask: 1
  m_RendererPriority: 0
  m_Materials:
  - {fileID: 10754, guid: 0000000000000000f000000000000000, type: 0}
  m_StaticBatchInfo:
    firstSubMesh: 0
    subMeshCount: 0
  m_StaticBatchRoot: {fileID: 0}
  m_ProbeAnchor: {fileID: 0}
  m_LightProbeVolumeOverride: {fileID: 0}
  m_ScaleInLightmap: 1
  m_ReceiveGI: 1
  m_PreserveUVs: 0
  m_IgnoreNormalsForChartDetection: 0
  m_ImportantGI: 0
  m_StitchLightmapSeams: 1
  m_SelectedEditorRenderState: 0
  m_MinimumChartSize: 4
  m_AutoUVMaxDistance: 0.5
  m_AutoUVMaxAngle: 89
  m_LightmapParameters: {fileID: 0}
  m_SortingLayerID: 0
  m_SortingLayer: 0
  m_SortingOrder: 0
  m_ChunkSize: {x: 32, y: 32, z: 32}
  m_ChunkCullingBounds: {x: 0, y: 0, z: 0}
  m_MaxChunkCount: 16
  m_MaxFrameAge: 16
  m_SortOrder: 0
  m_Mode: 0
  m_DetectChunkCullingBounds: 0
  m_MaskInteraction: 0
--- !u!114 &4197428842918365242
MonoBehaviour:
  m_ObjectHideFlags: 0
  m_CorrespondingSourceObject: {fileID: 0}
  m_PrefabInstance: {fileID: 0}
  m_PrefabAsset: {fileID: 0}
  m_GameObject: {fileID: 0}
  m_Enabled: 1
  m_EditorHideFlags: 0
  m_Script: {fileID: 12395, guid: 0000000000000000e000000000000000, type: 0}
  m_Name: Palette Settings
  m_EditorClassIdentifier: 
  cellSizing: 0
  m_TransparencySortMode: 0
  m_TransparencySortAxis: {x: 0, y: 0, z: 1}
