%YAML 1.1
%TAG !u! tag:unity3d.com,2011:
--- !u!1 &1864519892906537705
GameObject:
  m_ObjectHideFlags: 0
  m_CorrespondingSourceObject: {fileID: 0}
  m_PrefabInstance: {fileID: 0}
  m_PrefabAsset: {fileID: 0}
  serializedVersion: 6
  m_Component:
  - component: {fileID: 3570370311073674406}
  - component: {fileID: 1215340199273011830}
  m_Layer: 0
  m_Name: deco01
  m_TagString: Untagged
  m_Icon: {fileID: 0}
  m_NavMeshLayer: 0
  m_StaticEditorFlags: 0
  m_IsActive: 1
--- !u!4 &3570370311073674406
Transform:
  m_ObjectHideFlags: 0
  m_CorrespondingSourceObject: {fileID: 0}
  m_PrefabInstance: {fileID: 0}
  m_PrefabAsset: {fileID: 0}
  m_GameObject: {fileID: 1864519892906537705}
  serializedVersion: 2
  m_LocalRotation: {x: 0, y: 0, z: 0, w: 1}
  m_LocalPosition: {x: 0, y: 0, z: 0}
  m_LocalScale: {x: 1, y: 1, z: 1}
  m_ConstrainProportionsScale: 0
  m_Children:
  - {fileID: 149166454270652557}
  m_Father: {fileID: 0}
  m_LocalEulerAnglesHint: {x: 0, y: 0, z: 0}
--- !u!156049354 &1215340199273011830
Grid:
  m_ObjectHideFlags: 0
  m_CorrespondingSourceObject: {fileID: 0}
  m_PrefabInstance: {fileID: 0}
  m_PrefabAsset: {fileID: 0}
  m_GameObject: {fileID: 1864519892906537705}
  m_Enabled: 1
  m_CellSize: {x: 1, y: 1, z: 0}
  m_CellGap: {x: 0, y: 0, z: 0}
  m_CellLayout: 0
  m_CellSwizzle: 0
--- !u!1 &3307954046484728686
GameObject:
  m_ObjectHideFlags: 0
  m_CorrespondingSourceObject: {fileID: 0}
  m_PrefabInstance: {fileID: 0}
  m_PrefabAsset: {fileID: 0}
  serializedVersion: 6
  m_Component:
  - component: {fileID: 149166454270652557}
  - component: {fileID: 8901177443878399085}
  - component: {fileID: 428673460137522088}
  m_Layer: 0
  m_Name: Layer1
  m_TagString: Untagged
  m_Icon: {fileID: 0}
  m_NavMeshLayer: 0
  m_StaticEditorFlags: 0
  m_IsActive: 1
--- !u!4 &149166454270652557
Transform:
  m_ObjectHideFlags: 0
  m_CorrespondingSourceObject: {fileID: 0}
  m_PrefabInstance: {fileID: 0}
  m_PrefabAsset: {fileID: 0}
  m_GameObject: {fileID: 3307954046484728686}
  serializedVersion: 2
  m_LocalRotation: {x: -0, y: -0, z: -0, w: 1}
  m_LocalPosition: {x: 0, y: 0, z: 0}
  m_LocalScale: {x: 1, y: 1, z: 1}
  m_ConstrainProportionsScale: 0
  m_Children: []
  m_Father: {fileID: 3570370311073674406}
  m_LocalEulerAnglesHint: {x: 0, y: 0, z: 0}
--- !u!1839735485 &8901177443878399085
Tilemap:
  m_ObjectHideFlags: 0
  m_CorrespondingSourceObject: {fileID: 0}
  m_PrefabInstance: {fileID: 0}
  m_PrefabAsset: {fileID: 0}
  m_GameObject: {fileID: 3307954046484728686}
  m_Enabled: 1
  m_Tiles:
  - first: {x: -3, y: -6, z: 0}
    second:
      serializedVersion: 2
      m_TileIndex: 132
      m_TileSpriteIndex: 132
      m_TileMatrixIndex: 0
      m_TileColorIndex: 0
      m_TileObjectToInstantiateIndex: 65535
      dummyAlignment: 0
      m_AllTileFlags: 1073741825
  - first: {x: -2, y: -6, z: 0}
    second:
      serializedVersion: 2
      m_TileIndex: 133
      m_TileSpriteIndex: 133
      m_TileMatrixIndex: 0
      m_TileColorIndex: 0
      m_TileObjectToInstantiateIndex: 65535
      dummyAlignment: 0
      m_AllTileFlags: 1073741825
  - first: {x: -1, y: -6, z: 0}
    second:
      serializedVersion: 2
      m_TileIndex: 134
      m_TileSpriteIndex: 134
      m_TileMatrixIndex: 0
      m_TileColorIndex: 0
      m_TileObjectToInstantiateIndex: 65535
      dummyAlignment: 0
      m_AllTileFlags: 1073741825
  - first: {x: 0, y: -6, z: 0}
    second:
      serializedVersion: 2
      m_TileIndex: 135
      m_TileSpriteIndex: 135
      m_TileMatrixIndex: 0
      m_TileColorIndex: 0
      m_TileObjectToInstantiateIndex: 65535
      dummyAlignment: 0
      m_AllTileFlags: 1073741825
  - first: {x: 1, y: -6, z: 0}
    second:
      serializedVersion: 2
      m_TileIndex: 136
      m_TileSpriteIndex: 136
      m_TileMatrixIndex: 0
      m_TileColorIndex: 0
      m_TileObjectToInstantiateIndex: 65535
      dummyAlignment: 0
      m_AllTileFlags: 1073741825
  - first: {x: 2, y: -6, z: 0}
    second:
      serializedVersion: 2
      m_TileIndex: 137
      m_TileSpriteIndex: 137
      m_TileMatrixIndex: 0
      m_TileColorIndex: 0
      m_TileObjectToInstantiateIndex: 65535
      dummyAlignment: 0
      m_AllTileFlags: 1073741825
  - first: {x: 3, y: -6, z: 0}
    second:
      serializedVersion: 2
      m_TileIndex: 138
      m_TileSpriteIndex: 138
      m_TileMatrixIndex: 0
      m_TileColorIndex: 0
      m_TileObjectToInstantiateIndex: 65535
      dummyAlignment: 0
      m_AllTileFlags: 1073741825
  - first: {x: 4, y: -6, z: 0}
    second:
      serializedVersion: 2
      m_TileIndex: 139
      m_TileSpriteIndex: 139
      m_TileMatrixIndex: 0
      m_TileColorIndex: 0
      m_TileObjectToInstantiateIndex: 65535
      dummyAlignment: 0
      m_AllTileFlags: 1073741825
  - first: {x: 5, y: -6, z: 0}
    second:
      serializedVersion: 2
      m_TileIndex: 140
      m_TileSpriteIndex: 140
      m_TileMatrixIndex: 0
      m_TileColorIndex: 0
      m_TileObjectToInstantiateIndex: 65535
      dummyAlignment: 0
      m_AllTileFlags: 1073741825
  - first: {x: 6, y: -6, z: 0}
    second:
      serializedVersion: 2
      m_TileIndex: 141
      m_TileSpriteIndex: 141
      m_TileMatrixIndex: 0
      m_TileColorIndex: 0
      m_TileObjectToInstantiateIndex: 65535
      dummyAlignment: 0
      m_AllTileFlags: 1073741825
  - first: {x: 7, y: -6, z: 0}
    second:
      serializedVersion: 2
      m_TileIndex: 142
      m_TileSpriteIndex: 142
      m_TileMatrixIndex: 0
      m_TileColorIndex: 0
      m_TileObjectToInstantiateIndex: 65535
      dummyAlignment: 0
      m_AllTileFlags: 1073741825
  - first: {x: 8, y: -6, z: 0}
    second:
      serializedVersion: 2
      m_TileIndex: 143
      m_TileSpriteIndex: 143
      m_TileMatrixIndex: 0
      m_TileColorIndex: 0
      m_TileObjectToInstantiateIndex: 65535
      dummyAlignment: 0
      m_AllTileFlags: 1073741825
  - first: {x: 9, y: -6, z: 0}
    second:
      serializedVersion: 2
      m_TileIndex: 144
      m_TileSpriteIndex: 144
      m_TileMatrixIndex: 0
      m_TileColorIndex: 0
      m_TileObjectToInstantiateIndex: 65535
      dummyAlignment: 0
      m_AllTileFlags: 1073741825
  - first: {x: 10, y: -6, z: 0}
    second:
      serializedVersion: 2
      m_TileIndex: 145
      m_TileSpriteIndex: 145
      m_TileMatrixIndex: 0
      m_TileColorIndex: 0
      m_TileObjectToInstantiateIndex: 65535
      dummyAlignment: 0
      m_AllTileFlags: 1073741825
  - first: {x: 11, y: -6, z: 0}
    second:
      serializedVersion: 2
      m_TileIndex: 146
      m_TileSpriteIndex: 146
      m_TileMatrixIndex: 0
      m_TileColorIndex: 0
      m_TileObjectToInstantiateIndex: 65535
      dummyAlignment: 0
      m_AllTileFlags: 1073741825
  - first: {x: 12, y: -6, z: 0}
    second:
      serializedVersion: 2
      m_TileIndex: 147
      m_TileSpriteIndex: 147
      m_TileMatrixIndex: 0
      m_TileColorIndex: 0
      m_TileObjectToInstantiateIndex: 65535
      dummyAlignment: 0
      m_AllTileFlags: 1073741825
  - first: {x: 13, y: -6, z: 0}
    second:
      serializedVersion: 2
      m_TileIndex: 148
      m_TileSpriteIndex: 148
      m_TileMatrixIndex: 0
      m_TileColorIndex: 0
      m_TileObjectToInstantiateIndex: 65535
      dummyAlignment: 0
      m_AllTileFlags: 1073741825
  - first: {x: 14, y: -6, z: 0}
    second:
      serializedVersion: 2
      m_TileIndex: 149
      m_TileSpriteIndex: 149
      m_TileMatrixIndex: 0
      m_TileColorIndex: 0
      m_TileObjectToInstantiateIndex: 65535
      dummyAlignment: 0
      m_AllTileFlags: 1073741825
  - first: {x: 15, y: -6, z: 0}
    second:
      serializedVersion: 2
      m_TileIndex: 150
      m_TileSpriteIndex: 150
      m_TileMatrixIndex: 0
      m_TileColorIndex: 0
      m_TileObjectToInstantiateIndex: 65535
      dummyAlignment: 0
      m_AllTileFlags: 1073741825
  - first: {x: -3, y: -5, z: 0}
    second:
      serializedVersion: 2
      m_TileIndex: 113
      m_TileSpriteIndex: 113
      m_TileMatrixIndex: 0
      m_TileColorIndex: 0
      m_TileObjectToInstantiateIndex: 65535
      dummyAlignment: 0
      m_AllTileFlags: 1073741825
  - first: {x: -2, y: -5, z: 0}
    second:
      serializedVersion: 2
      m_TileIndex: 114
      m_TileSpriteIndex: 114
      m_TileMatrixIndex: 0
      m_TileColorIndex: 0
      m_TileObjectToInstantiateIndex: 65535
      dummyAlignment: 0
      m_AllTileFlags: 1073741825
  - first: {x: -1, y: -5, z: 0}
    second:
      serializedVersion: 2
      m_TileIndex: 115
      m_TileSpriteIndex: 115
      m_TileMatrixIndex: 0
      m_TileColorIndex: 0
      m_TileObjectToInstantiateIndex: 65535
      dummyAlignment: 0
      m_AllTileFlags: 1073741825
  - first: {x: 0, y: -5, z: 0}
    second:
      serializedVersion: 2
      m_TileIndex: 116
      m_TileSpriteIndex: 116
      m_TileMatrixIndex: 0
      m_TileColorIndex: 0
      m_TileObjectToInstantiateIndex: 65535
      dummyAlignment: 0
      m_AllTileFlags: 1073741825
  - first: {x: 1, y: -5, z: 0}
    second:
      serializedVersion: 2
      m_TileIndex: 117
      m_TileSpriteIndex: 117
      m_TileMatrixIndex: 0
      m_TileColorIndex: 0
      m_TileObjectToInstantiateIndex: 65535
      dummyAlignment: 0
      m_AllTileFlags: 1073741825
  - first: {x: 2, y: -5, z: 0}
    second:
      serializedVersion: 2
      m_TileIndex: 118
      m_TileSpriteIndex: 118
      m_TileMatrixIndex: 0
      m_TileColorIndex: 0
      m_TileObjectToInstantiateIndex: 65535
      dummyAlignment: 0
      m_AllTileFlags: 1073741825
  - first: {x: 3, y: -5, z: 0}
    second:
      serializedVersion: 2
      m_TileIndex: 119
      m_TileSpriteIndex: 119
      m_TileMatrixIndex: 0
      m_TileColorIndex: 0
      m_TileObjectToInstantiateIndex: 65535
      dummyAlignment: 0
      m_AllTileFlags: 1073741825
  - first: {x: 4, y: -5, z: 0}
    second:
      serializedVersion: 2
      m_TileIndex: 120
      m_TileSpriteIndex: 120
      m_TileMatrixIndex: 0
      m_TileColorIndex: 0
      m_TileObjectToInstantiateIndex: 65535
      dummyAlignment: 0
      m_AllTileFlags: 1073741825
  - first: {x: 5, y: -5, z: 0}
    second:
      serializedVersion: 2
      m_TileIndex: 121
      m_TileSpriteIndex: 121
      m_TileMatrixIndex: 0
      m_TileColorIndex: 0
      m_TileObjectToInstantiateIndex: 65535
      dummyAlignment: 0
      m_AllTileFlags: 1073741825
  - first: {x: 6, y: -5, z: 0}
    second:
      serializedVersion: 2
      m_TileIndex: 122
      m_TileSpriteIndex: 122
      m_TileMatrixIndex: 0
      m_TileColorIndex: 0
      m_TileObjectToInstantiateIndex: 65535
      dummyAlignment: 0
      m_AllTileFlags: 1073741825
  - first: {x: 7, y: -5, z: 0}
    second:
      serializedVersion: 2
      m_TileIndex: 123
      m_TileSpriteIndex: 123
      m_TileMatrixIndex: 0
      m_TileColorIndex: 0
      m_TileObjectToInstantiateIndex: 65535
      dummyAlignment: 0
      m_AllTileFlags: 1073741825
  - first: {x: 8, y: -5, z: 0}
    second:
      serializedVersion: 2
      m_TileIndex: 124
      m_TileSpriteIndex: 124
      m_TileMatrixIndex: 0
      m_TileColorIndex: 0
      m_TileObjectToInstantiateIndex: 65535
      dummyAlignment: 0
      m_AllTileFlags: 1073741825
  - first: {x: 9, y: -5, z: 0}
    second:
      serializedVersion: 2
      m_TileIndex: 125
      m_TileSpriteIndex: 125
      m_TileMatrixIndex: 0
      m_TileColorIndex: 0
      m_TileObjectToInstantiateIndex: 65535
      dummyAlignment: 0
      m_AllTileFlags: 1073741825
  - first: {x: 10, y: -5, z: 0}
    second:
      serializedVersion: 2
      m_TileIndex: 126
      m_TileSpriteIndex: 126
      m_TileMatrixIndex: 0
      m_TileColorIndex: 0
      m_TileObjectToInstantiateIndex: 65535
      dummyAlignment: 0
      m_AllTileFlags: 1073741825
  - first: {x: 11, y: -5, z: 0}
    second:
      serializedVersion: 2
      m_TileIndex: 127
      m_TileSpriteIndex: 127
      m_TileMatrixIndex: 0
      m_TileColorIndex: 0
      m_TileObjectToInstantiateIndex: 65535
      dummyAlignment: 0
      m_AllTileFlags: 1073741825
  - first: {x: 12, y: -5, z: 0}
    second:
      serializedVersion: 2
      m_TileIndex: 128
      m_TileSpriteIndex: 128
      m_TileMatrixIndex: 0
      m_TileColorIndex: 0
      m_TileObjectToInstantiateIndex: 65535
      dummyAlignment: 0
      m_AllTileFlags: 1073741825
  - first: {x: 13, y: -5, z: 0}
    second:
      serializedVersion: 2
      m_TileIndex: 129
      m_TileSpriteIndex: 129
      m_TileMatrixIndex: 0
      m_TileColorIndex: 0
      m_TileObjectToInstantiateIndex: 65535
      dummyAlignment: 0
      m_AllTileFlags: 1073741825
  - first: {x: 14, y: -5, z: 0}
    second:
      serializedVersion: 2
      m_TileIndex: 130
      m_TileSpriteIndex: 130
      m_TileMatrixIndex: 0
      m_TileColorIndex: 0
      m_TileObjectToInstantiateIndex: 65535
      dummyAlignment: 0
      m_AllTileFlags: 1073741825
  - first: {x: 15, y: -5, z: 0}
    second:
      serializedVersion: 2
      m_TileIndex: 131
      m_TileSpriteIndex: 131
      m_TileMatrixIndex: 0
      m_TileColorIndex: 0
      m_TileObjectToInstantiateIndex: 65535
      dummyAlignment: 0
      m_AllTileFlags: 1073741825
  - first: {x: -3, y: -4, z: 0}
    second:
      serializedVersion: 2
      m_TileIndex: 94
      m_TileSpriteIndex: 94
      m_TileMatrixIndex: 0
      m_TileColorIndex: 0
      m_TileObjectToInstantiateIndex: 65535
      dummyAlignment: 0
      m_AllTileFlags: 1073741825
  - first: {x: -2, y: -4, z: 0}
    second:
      serializedVersion: 2
      m_TileIndex: 95
      m_TileSpriteIndex: 95
      m_TileMatrixIndex: 0
      m_TileColorIndex: 0
      m_TileObjectToInstantiateIndex: 65535
      dummyAlignment: 0
      m_AllTileFlags: 1073741825
  - first: {x: -1, y: -4, z: 0}
    second:
      serializedVersion: 2
      m_TileIndex: 96
      m_TileSpriteIndex: 96
      m_TileMatrixIndex: 0
      m_TileColorIndex: 0
      m_TileObjectToInstantiateIndex: 65535
      dummyAlignment: 0
      m_AllTileFlags: 1073741825
  - first: {x: 0, y: -4, z: 0}
    second:
      serializedVersion: 2
      m_TileIndex: 97
      m_TileSpriteIndex: 97
      m_TileMatrixIndex: 0
      m_TileColorIndex: 0
      m_TileObjectToInstantiateIndex: 65535
      dummyAlignment: 0
      m_AllTileFlags: 1073741825
  - first: {x: 1, y: -4, z: 0}
    second:
      serializedVersion: 2
      m_TileIndex: 98
      m_TileSpriteIndex: 98
      m_TileMatrixIndex: 0
      m_TileColorIndex: 0
      m_TileObjectToInstantiateIndex: 65535
      dummyAlignment: 0
      m_AllTileFlags: 1073741825
  - first: {x: 2, y: -4, z: 0}
    second:
      serializedVersion: 2
      m_TileIndex: 61
      m_TileSpriteIndex: 61
      m_TileMatrixIndex: 1
      m_TileColorIndex: 0
      m_TileObjectToInstantiateIndex: 65535
      dummyAlignment: 0
      m_AllTileFlags: 1073741825
  - first: {x: 3, y: -4, z: 0}
    second:
      serializedVersion: 2
      m_TileIndex: 100
      m_TileSpriteIndex: 100
      m_TileMatrixIndex: 0
      m_TileColorIndex: 0
      m_TileObjectToInstantiateIndex: 65535
      dummyAlignment: 0
      m_AllTileFlags: 1073741825
  - first: {x: 4, y: -4, z: 0}
    second:
      serializedVersion: 2
      m_TileIndex: 101
      m_TileSpriteIndex: 101
      m_TileMatrixIndex: 0
      m_TileColorIndex: 0
      m_TileObjectToInstantiateIndex: 65535
      dummyAlignment: 0
      m_AllTileFlags: 1073741825
  - first: {x: 5, y: -4, z: 0}
    second:
      serializedVersion: 2
      m_TileIndex: 102
      m_TileSpriteIndex: 102
      m_TileMatrixIndex: 0
      m_TileColorIndex: 0
      m_TileObjectToInstantiateIndex: 65535
      dummyAlignment: 0
      m_AllTileFlags: 1073741825
  - first: {x: 6, y: -4, z: 0}
    second:
      serializedVersion: 2
      m_TileIndex: 103
      m_TileSpriteIndex: 103
      m_TileMatrixIndex: 0
      m_TileColorIndex: 0
      m_TileObjectToInstantiateIndex: 65535
      dummyAlignment: 0
      m_AllTileFlags: 1073741825
  - first: {x: 7, y: -4, z: 0}
    second:
      serializedVersion: 2
      m_TileIndex: 104
      m_TileSpriteIndex: 104
      m_TileMatrixIndex: 0
      m_TileColorIndex: 0
      m_TileObjectToInstantiateIndex: 65535
      dummyAlignment: 0
      m_AllTileFlags: 1073741825
  - first: {x: 8, y: -4, z: 0}
    second:
      serializedVersion: 2
      m_TileIndex: 105
      m_TileSpriteIndex: 105
      m_TileMatrixIndex: 0
      m_TileColorIndex: 0
      m_TileObjectToInstantiateIndex: 65535
      dummyAlignment: 0
      m_AllTileFlags: 1073741825
  - first: {x: 9, y: -4, z: 0}
    second:
      serializedVersion: 2
      m_TileIndex: 106
      m_TileSpriteIndex: 106
      m_TileMatrixIndex: 0
      m_TileColorIndex: 0
      m_TileObjectToInstantiateIndex: 65535
      dummyAlignment: 0
      m_AllTileFlags: 1073741825
  - first: {x: 10, y: -4, z: 0}
    second:
      serializedVersion: 2
      m_TileIndex: 107
      m_TileSpriteIndex: 107
      m_TileMatrixIndex: 0
      m_TileColorIndex: 0
      m_TileObjectToInstantiateIndex: 65535
      dummyAlignment: 0
      m_AllTileFlags: 1073741825
  - first: {x: 11, y: -4, z: 0}
    second:
      serializedVersion: 2
      m_TileIndex: 108
      m_TileSpriteIndex: 108
      m_TileMatrixIndex: 0
      m_TileColorIndex: 0
      m_TileObjectToInstantiateIndex: 65535
      dummyAlignment: 0
      m_AllTileFlags: 1073741825
  - first: {x: 12, y: -4, z: 0}
    second:
      serializedVersion: 2
      m_TileIndex: 109
      m_TileSpriteIndex: 109
      m_TileMatrixIndex: 0
      m_TileColorIndex: 0
      m_TileObjectToInstantiateIndex: 65535
      dummyAlignment: 0
      m_AllTileFlags: 1073741825
  - first: {x: 13, y: -4, z: 0}
    second:
      serializedVersion: 2
      m_TileIndex: 110
      m_TileSpriteIndex: 110
      m_TileMatrixIndex: 0
      m_TileColorIndex: 0
      m_TileObjectToInstantiateIndex: 65535
      dummyAlignment: 0
      m_AllTileFlags: 1073741825
  - first: {x: 14, y: -4, z: 0}
    second:
      serializedVersion: 2
      m_TileIndex: 111
      m_TileSpriteIndex: 111
      m_TileMatrixIndex: 0
      m_TileColorIndex: 0
      m_TileObjectToInstantiateIndex: 65535
      dummyAlignment: 0
      m_AllTileFlags: 1073741825
  - first: {x: 15, y: -4, z: 0}
    second:
      serializedVersion: 2
      m_TileIndex: 112
      m_TileSpriteIndex: 112
      m_TileMatrixIndex: 0
      m_TileColorIndex: 0
      m_TileObjectToInstantiateIndex: 65535
      dummyAlignment: 0
      m_AllTileFlags: 1073741825
  - first: {x: -3, y: -3, z: 0}
    second:
      serializedVersion: 2
      m_TileIndex: 75
      m_TileSpriteIndex: 75
      m_TileMatrixIndex: 0
      m_TileColorIndex: 0
      m_TileObjectToInstantiateIndex: 65535
      dummyAlignment: 0
      m_AllTileFlags: 1073741825
  - first: {x: -2, y: -3, z: 0}
    second:
      serializedVersion: 2
      m_TileIndex: 76
      m_TileSpriteIndex: 76
      m_TileMatrixIndex: 0
      m_TileColorIndex: 0
      m_TileObjectToInstantiateIndex: 65535
      dummyAlignment: 0
      m_AllTileFlags: 1073741825
  - first: {x: -1, y: -3, z: 0}
    second:
      serializedVersion: 2
      m_TileIndex: 77
      m_TileSpriteIndex: 77
      m_TileMatrixIndex: 0
      m_TileColorIndex: 0
      m_TileObjectToInstantiateIndex: 65535
      dummyAlignment: 0
      m_AllTileFlags: 1073741825
  - first: {x: 0, y: -3, z: 0}
    second:
      serializedVersion: 2
      m_TileIndex: 78
      m_TileSpriteIndex: 78
      m_TileMatrixIndex: 0
      m_TileColorIndex: 0
      m_TileObjectToInstantiateIndex: 65535
      dummyAlignment: 0
      m_AllTileFlags: 1073741825
  - first: {x: 1, y: -3, z: 0}
    second:
      serializedVersion: 2
      m_TileIndex: 79
      m_TileSpriteIndex: 79
      m_TileMatrixIndex: 0
      m_TileColorIndex: 0
      m_TileObjectToInstantiateIndex: 65535
      dummyAlignment: 0
      m_AllTileFlags: 1073741825
  - first: {x: 2, y: -3, z: 0}
    second:
      serializedVersion: 2
      m_TileIndex: 42
      m_TileSpriteIndex: 42
      m_TileMatrixIndex: 1
      m_TileColorIndex: 0
      m_TileObjectToInstantiateIndex: 65535
      dummyAlignment: 0
      m_AllTileFlags: 1073741825
  - first: {x: 3, y: -3, z: 0}
    second:
      serializedVersion: 2
      m_TileIndex: 81
      m_TileSpriteIndex: 81
      m_TileMatrixIndex: 0
      m_TileColorIndex: 0
      m_TileObjectToInstantiateIndex: 65535
      dummyAlignment: 0
      m_AllTileFlags: 1073741825
  - first: {x: 4, y: -3, z: 0}
    second:
      serializedVersion: 2
      m_TileIndex: 82
      m_TileSpriteIndex: 99
      m_TileMatrixIndex: 0
      m_TileColorIndex: 0
      m_TileObjectToInstantiateIndex: 65535
      dummyAlignment: 0
      m_AllTileFlags: 1073741825
  - first: {x: 5, y: -3, z: 0}
    second:
      serializedVersion: 2
      m_TileIndex: 83
      m_TileSpriteIndex: 83
      m_TileMatrixIndex: 0
      m_TileColorIndex: 0
      m_TileObjectToInstantiateIndex: 65535
      dummyAlignment: 0
      m_AllTileFlags: 1073741825
  - first: {x: 6, y: -3, z: 0}
    second:
      serializedVersion: 2
      m_TileIndex: 84
      m_TileSpriteIndex: 84
      m_TileMatrixIndex: 0
      m_TileColorIndex: 0
      m_TileObjectToInstantiateIndex: 65535
      dummyAlignment: 0
      m_AllTileFlags: 1073741825
  - first: {x: 7, y: -3, z: 0}
    second:
      serializedVersion: 2
      m_TileIndex: 85
      m_TileSpriteIndex: 85
      m_TileMatrixIndex: 0
      m_TileColorIndex: 0
      m_TileObjectToInstantiateIndex: 65535
      dummyAlignment: 0
      m_AllTileFlags: 1073741825
  - first: {x: 8, y: -3, z: 0}
    second:
      serializedVersion: 2
      m_TileIndex: 86
      m_TileSpriteIndex: 86
      m_TileMatrixIndex: 0
      m_TileColorIndex: 0
      m_TileObjectToInstantiateIndex: 65535
      dummyAlignment: 0
      m_AllTileFlags: 1073741825
  - first: {x: 9, y: -3, z: 0}
    second:
      serializedVersion: 2
      m_TileIndex: 87
      m_TileSpriteIndex: 87
      m_TileMatrixIndex: 0
      m_TileColorIndex: 0
      m_TileObjectToInstantiateIndex: 65535
      dummyAlignment: 0
      m_AllTileFlags: 1073741825
  - first: {x: 10, y: -3, z: 0}
    second:
      serializedVersion: 2
      m_TileIndex: 88
      m_TileSpriteIndex: 88
      m_TileMatrixIndex: 0
      m_TileColorIndex: 0
      m_TileObjectToInstantiateIndex: 65535
      dummyAlignment: 0
      m_AllTileFlags: 1073741825
  - first: {x: 11, y: -3, z: 0}
    second:
      serializedVersion: 2
      m_TileIndex: 89
      m_TileSpriteIndex: 89
      m_TileMatrixIndex: 0
      m_TileColorIndex: 0
      m_TileObjectToInstantiateIndex: 65535
      dummyAlignment: 0
      m_AllTileFlags: 1073741825
  - first: {x: 12, y: -3, z: 0}
    second:
      serializedVersion: 2
      m_TileIndex: 90
      m_TileSpriteIndex: 90
      m_TileMatrixIndex: 0
      m_TileColorIndex: 0
      m_TileObjectToInstantiateIndex: 65535
      dummyAlignment: 0
      m_AllTileFlags: 1073741825
  - first: {x: 13, y: -3, z: 0}
    second:
      serializedVersion: 2
      m_TileIndex: 91
      m_TileSpriteIndex: 91
      m_TileMatrixIndex: 0
      m_TileColorIndex: 0
      m_TileObjectToInstantiateIndex: 65535
      dummyAlignment: 0
      m_AllTileFlags: 1073741825
  - first: {x: 14, y: -3, z: 0}
    second:
      serializedVersion: 2
      m_TileIndex: 92
      m_TileSpriteIndex: 92
      m_TileMatrixIndex: 0
      m_TileColorIndex: 0
      m_TileObjectToInstantiateIndex: 65535
      dummyAlignment: 0
      m_AllTileFlags: 1073741825
  - first: {x: 15, y: -3, z: 0}
    second:
      serializedVersion: 2
      m_TileIndex: 93
      m_TileSpriteIndex: 93
      m_TileMatrixIndex: 0
      m_TileColorIndex: 0
      m_TileObjectToInstantiateIndex: 65535
      dummyAlignment: 0
      m_AllTileFlags: 1073741825
  - first: {x: -3, y: -2, z: 0}
    second:
      serializedVersion: 2
      m_TileIndex: 56
      m_TileSpriteIndex: 56
      m_TileMatrixIndex: 0
      m_TileColorIndex: 0
      m_TileObjectToInstantiateIndex: 65535
      dummyAlignment: 0
      m_AllTileFlags: 1073741825
  - first: {x: -2, y: -2, z: 0}
    second:
      serializedVersion: 2
      m_TileIndex: 57
      m_TileSpriteIndex: 57
      m_TileMatrixIndex: 0
      m_TileColorIndex: 0
      m_TileObjectToInstantiateIndex: 65535
      dummyAlignment: 0
      m_AllTileFlags: 1073741825
  - first: {x: -1, y: -2, z: 0}
    second:
      serializedVersion: 2
      m_TileIndex: 58
      m_TileSpriteIndex: 58
      m_TileMatrixIndex: 0
      m_TileColorIndex: 0
      m_TileObjectToInstantiateIndex: 65535
      dummyAlignment: 0
      m_AllTileFlags: 1073741825
  - first: {x: 0, y: -2, z: 0}
    second:
      serializedVersion: 2
      m_TileIndex: 59
      m_TileSpriteIndex: 59
      m_TileMatrixIndex: 0
      m_TileColorIndex: 0
      m_TileObjectToInstantiateIndex: 65535
      dummyAlignment: 0
      m_AllTileFlags: 1073741825
  - first: {x: 1, y: -2, z: 0}
    second:
      serializedVersion: 2
      m_TileIndex: 60
      m_TileSpriteIndex: 60
      m_TileMatrixIndex: 0
      m_TileColorIndex: 0
      m_TileObjectToInstantiateIndex: 65535
      dummyAlignment: 0
      m_AllTileFlags: 1073741825
  - first: {x: 2, y: -2, z: 0}
    second:
      serializedVersion: 2
      m_TileIndex: 61
      m_TileSpriteIndex: 61
      m_TileMatrixIndex: 0
      m_TileColorIndex: 0
      m_TileObjectToInstantiateIndex: 65535
      dummyAlignment: 0
      m_AllTileFlags: 1073741825
  - first: {x: 3, y: -2, z: 0}
    second:
      serializedVersion: 2
      m_TileIndex: 62
      m_TileSpriteIndex: 62
      m_TileMatrixIndex: 0
      m_TileColorIndex: 0
      m_TileObjectToInstantiateIndex: 65535
      dummyAlignment: 0
      m_AllTileFlags: 1073741825
  - first: {x: 4, y: -2, z: 0}
    second:
      serializedVersion: 2
      m_TileIndex: 63
      m_TileSpriteIndex: 63
      m_TileMatrixIndex: 0
      m_TileColorIndex: 0
      m_TileObjectToInstantiateIndex: 65535
      dummyAlignment: 0
      m_AllTileFlags: 1073741825
  - first: {x: 5, y: -2, z: 0}
    second:
      serializedVersion: 2
      m_TileIndex: 64
      m_TileSpriteIndex: 82
      m_TileMatrixIndex: 0
      m_TileColorIndex: 0
      m_TileObjectToInstantiateIndex: 65535
      dummyAlignment: 0
      m_AllTileFlags: 1073741825
  - first: {x: 6, y: -2, z: 0}
    second:
      serializedVersion: 2
      m_TileIndex: 65
      m_TileSpriteIndex: 65
      m_TileMatrixIndex: 0
      m_TileColorIndex: 0
      m_TileObjectToInstantiateIndex: 65535
      dummyAlignment: 0
      m_AllTileFlags: 1073741825
  - first: {x: 7, y: -2, z: 0}
    second:
      serializedVersion: 2
      m_TileIndex: 66
      m_TileSpriteIndex: 66
      m_TileMatrixIndex: 0
      m_TileColorIndex: 0
      m_TileObjectToInstantiateIndex: 65535
      dummyAlignment: 0
      m_AllTileFlags: 1073741825
  - first: {x: 8, y: -2, z: 0}
    second:
      serializedVersion: 2
      m_TileIndex: 67
      m_TileSpriteIndex: 67
      m_TileMatrixIndex: 0
      m_TileColorIndex: 0
      m_TileObjectToInstantiateIndex: 65535
      dummyAlignment: 0
      m_AllTileFlags: 1073741825
  - first: {x: 9, y: -2, z: 0}
    second:
      serializedVersion: 2
      m_TileIndex: 68
      m_TileSpriteIndex: 68
      m_TileMatrixIndex: 0
      m_TileColorIndex: 0
      m_TileObjectToInstantiateIndex: 65535
      dummyAlignment: 0
      m_AllTileFlags: 1073741825
  - first: {x: 10, y: -2, z: 0}
    second:
      serializedVersion: 2
      m_TileIndex: 69
      m_TileSpriteIndex: 69
      m_TileMatrixIndex: 0
      m_TileColorIndex: 0
      m_TileObjectToInstantiateIndex: 65535
      dummyAlignment: 0
      m_AllTileFlags: 1073741825
  - first: {x: 11, y: -2, z: 0}
    second:
      serializedVersion: 2
      m_TileIndex: 70
      m_TileSpriteIndex: 70
      m_TileMatrixIndex: 0
      m_TileColorIndex: 0
      m_TileObjectToInstantiateIndex: 65535
      dummyAlignment: 0
      m_AllTileFlags: 1073741825
  - first: {x: 12, y: -2, z: 0}
    second:
      serializedVersion: 2
      m_TileIndex: 71
      m_TileSpriteIndex: 71
      m_TileMatrixIndex: 0
      m_TileColorIndex: 0
      m_TileObjectToInstantiateIndex: 65535
      dummyAlignment: 0
      m_AllTileFlags: 1073741825
  - first: {x: 13, y: -2, z: 0}
    second:
      serializedVersion: 2
      m_TileIndex: 72
      m_TileSpriteIndex: 72
      m_TileMatrixIndex: 0
      m_TileColorIndex: 0
      m_TileObjectToInstantiateIndex: 65535
      dummyAlignment: 0
      m_AllTileFlags: 1073741825
  - first: {x: 14, y: -2, z: 0}
    second:
      serializedVersion: 2
      m_TileIndex: 73
      m_TileSpriteIndex: 73
      m_TileMatrixIndex: 0
      m_TileColorIndex: 0
      m_TileObjectToInstantiateIndex: 65535
      dummyAlignment: 0
      m_AllTileFlags: 1073741825
  - first: {x: 15, y: -2, z: 0}
    second:
      serializedVersion: 2
      m_TileIndex: 74
      m_TileSpriteIndex: 74
      m_TileMatrixIndex: 0
      m_TileColorIndex: 0
      m_TileObjectToInstantiateIndex: 65535
      dummyAlignment: 0
      m_AllTileFlags: 1073741825
  - first: {x: -3, y: -1, z: 0}
    second:
      serializedVersion: 2
      m_TileIndex: 37
      m_TileSpriteIndex: 37
      m_TileMatrixIndex: 0
      m_TileColorIndex: 0
      m_TileObjectToInstantiateIndex: 65535
      dummyAlignment: 0
      m_AllTileFlags: 1073741825
  - first: {x: -2, y: -1, z: 0}
    second:
      serializedVersion: 2
      m_TileIndex: 38
      m_TileSpriteIndex: 38
      m_TileMatrixIndex: 0
      m_TileColorIndex: 0
      m_TileObjectToInstantiateIndex: 65535
      dummyAlignment: 0
      m_AllTileFlags: 1073741825
  - first: {x: -1, y: -1, z: 0}
    second:
      serializedVersion: 2
      m_TileIndex: 39
      m_TileSpriteIndex: 39
      m_TileMatrixIndex: 0
      m_TileColorIndex: 0
      m_TileObjectToInstantiateIndex: 65535
      dummyAlignment: 0
      m_AllTileFlags: 1073741825
  - first: {x: 0, y: -1, z: 0}
    second:
      serializedVersion: 2
      m_TileIndex: 40
      m_TileSpriteIndex: 40
      m_TileMatrixIndex: 0
      m_TileColorIndex: 0
      m_TileObjectToInstantiateIndex: 65535
      dummyAlignment: 0
      m_AllTileFlags: 1073741825
  - first: {x: 1, y: -1, z: 0}
    second:
      serializedVersion: 2
      m_TileIndex: 41
      m_TileSpriteIndex: 41
      m_TileMatrixIndex: 0
      m_TileColorIndex: 0
      m_TileObjectToInstantiateIndex: 65535
      dummyAlignment: 0
      m_AllTileFlags: 1073741825
  - first: {x: 2, y: -1, z: 0}
    second:
      serializedVersion: 2
      m_TileIndex: 42
      m_TileSpriteIndex: 42
      m_TileMatrixIndex: 0
      m_TileColorIndex: 0
      m_TileObjectToInstantiateIndex: 65535
      dummyAlignment: 0
      m_AllTileFlags: 1073741825
  - first: {x: 3, y: -1, z: 0}
    second:
      serializedVersion: 2
      m_TileIndex: 43
      m_TileSpriteIndex: 43
      m_TileMatrixIndex: 0
      m_TileColorIndex: 0
      m_TileObjectToInstantiateIndex: 65535
      dummyAlignment: 0
      m_AllTileFlags: 1073741825
  - first: {x: 4, y: -1, z: 0}
    second:
      serializedVersion: 2
      m_TileIndex: 44
      m_TileSpriteIndex: 44
      m_TileMatrixIndex: 0
      m_TileColorIndex: 0
      m_TileObjectToInstantiateIndex: 65535
      dummyAlignment: 0
      m_AllTileFlags: 1073741825
  - first: {x: 5, y: -1, z: 0}
    second:
      serializedVersion: 2
      m_TileIndex: 45
      m_TileSpriteIndex: 80
      m_TileMatrixIndex: 0
      m_TileColorIndex: 0
      m_TileObjectToInstantiateIndex: 65535
      dummyAlignment: 0
      m_AllTileFlags: 1073741825
  - first: {x: 6, y: -1, z: 0}
    second:
      serializedVersion: 2
      m_TileIndex: 46
      m_TileSpriteIndex: 46
      m_TileMatrixIndex: 0
      m_TileColorIndex: 0
      m_TileObjectToInstantiateIndex: 65535
      dummyAlignment: 0
      m_AllTileFlags: 1073741825
  - first: {x: 7, y: -1, z: 0}
    second:
      serializedVersion: 2
      m_TileIndex: 47
      m_TileSpriteIndex: 47
      m_TileMatrixIndex: 0
      m_TileColorIndex: 0
      m_TileObjectToInstantiateIndex: 65535
      dummyAlignment: 0
      m_AllTileFlags: 1073741825
  - first: {x: 8, y: -1, z: 0}
    second:
      serializedVersion: 2
      m_TileIndex: 48
      m_TileSpriteIndex: 48
      m_TileMatrixIndex: 0
      m_TileColorIndex: 0
      m_TileObjectToInstantiateIndex: 65535
      dummyAlignment: 0
      m_AllTileFlags: 1073741825
  - first: {x: 9, y: -1, z: 0}
    second:
      serializedVersion: 2
      m_TileIndex: 49
      m_TileSpriteIndex: 49
      m_TileMatrixIndex: 0
      m_TileColorIndex: 0
      m_TileObjectToInstantiateIndex: 65535
      dummyAlignment: 0
      m_AllTileFlags: 1073741825
  - first: {x: 10, y: -1, z: 0}
    second:
      serializedVersion: 2
      m_TileIndex: 50
      m_TileSpriteIndex: 50
      m_TileMatrixIndex: 0
      m_TileColorIndex: 0
      m_TileObjectToInstantiateIndex: 65535
      dummyAlignment: 0
      m_AllTileFlags: 1073741825
  - first: {x: 11, y: -1, z: 0}
    second:
      serializedVersion: 2
      m_TileIndex: 51
      m_TileSpriteIndex: 51
      m_TileMatrixIndex: 0
      m_TileColorIndex: 0
      m_TileObjectToInstantiateIndex: 65535
      dummyAlignment: 0
      m_AllTileFlags: 1073741825
  - first: {x: 12, y: -1, z: 0}
    second:
      serializedVersion: 2
      m_TileIndex: 52
      m_TileSpriteIndex: 52
      m_TileMatrixIndex: 0
      m_TileColorIndex: 0
      m_TileObjectToInstantiateIndex: 65535
      dummyAlignment: 0
      m_AllTileFlags: 1073741825
  - first: {x: 13, y: -1, z: 0}
    second:
      serializedVersion: 2
      m_TileIndex: 53
      m_TileSpriteIndex: 53
      m_TileMatrixIndex: 0
      m_TileColorIndex: 0
      m_TileObjectToInstantiateIndex: 65535
      dummyAlignment: 0
      m_AllTileFlags: 1073741825
  - first: {x: 14, y: -1, z: 0}
    second:
      serializedVersion: 2
      m_TileIndex: 54
      m_TileSpriteIndex: 54
      m_TileMatrixIndex: 0
      m_TileColorIndex: 0
      m_TileObjectToInstantiateIndex: 65535
      dummyAlignment: 0
      m_AllTileFlags: 1073741825
  - first: {x: 15, y: -1, z: 0}
    second:
      serializedVersion: 2
      m_TileIndex: 55
      m_TileSpriteIndex: 55
      m_TileMatrixIndex: 0
      m_TileColorIndex: 0
      m_TileObjectToInstantiateIndex: 65535
      dummyAlignment: 0
      m_AllTileFlags: 1073741825
  - first: {x: -3, y: 0, z: 0}
    second:
      serializedVersion: 2
      m_TileIndex: 19
      m_TileSpriteIndex: 19
      m_TileMatrixIndex: 0
      m_TileColorIndex: 0
      m_TileObjectToInstantiateIndex: 65535
      dummyAlignment: 0
      m_AllTileFlags: 1073741825
  - first: {x: -2, y: 0, z: 0}
    second:
      serializedVersion: 2
      m_TileIndex: 20
      m_TileSpriteIndex: 20
      m_TileMatrixIndex: 0
      m_TileColorIndex: 0
      m_TileObjectToInstantiateIndex: 65535
      dummyAlignment: 0
      m_AllTileFlags: 1073741825
  - first: {x: -1, y: 0, z: 0}
    second:
      serializedVersion: 2
      m_TileIndex: 21
      m_TileSpriteIndex: 21
      m_TileMatrixIndex: 0
      m_TileColorIndex: 0
      m_TileObjectToInstantiateIndex: 65535
      dummyAlignment: 0
      m_AllTileFlags: 1073741825
  - first: {x: 1, y: 0, z: 0}
    second:
      serializedVersion: 2
      m_TileIndex: 22
      m_TileSpriteIndex: 22
      m_TileMatrixIndex: 0
      m_TileColorIndex: 0
      m_TileObjectToInstantiateIndex: 65535
      dummyAlignment: 0
      m_AllTileFlags: 1073741825
  - first: {x: 2, y: 0, z: 0}
    second:
      serializedVersion: 2
      m_TileIndex: 23
      m_TileSpriteIndex: 23
      m_TileMatrixIndex: 0
      m_TileColorIndex: 0
      m_TileObjectToInstantiateIndex: 65535
      dummyAlignment: 0
      m_AllTileFlags: 1073741825
  - first: {x: 3, y: 0, z: 0}
    second:
      serializedVersion: 2
      m_TileIndex: 24
      m_TileSpriteIndex: 24
      m_TileMatrixIndex: 0
      m_TileColorIndex: 0
      m_TileObjectToInstantiateIndex: 65535
      dummyAlignment: 0
      m_AllTileFlags: 1073741825
  - first: {x: 4, y: 0, z: 0}
    second:
      serializedVersion: 2
      m_TileIndex: 25
      m_TileSpriteIndex: 25
      m_TileMatrixIndex: 0
      m_TileColorIndex: 0
      m_TileObjectToInstantiateIndex: 65535
      dummyAlignment: 0
      m_AllTileFlags: 1073741825
  - first: {x: 5, y: 0, z: 0}
    second:
      serializedVersion: 2
      m_TileIndex: 26
      m_TileSpriteIndex: 64
      m_TileMatrixIndex: 0
      m_TileColorIndex: 0
      m_TileObjectToInstantiateIndex: 65535
      dummyAlignment: 0
      m_AllTileFlags: 1073741825
  - first: {x: 6, y: 0, z: 0}
    second:
      serializedVersion: 2
      m_TileIndex: 27
      m_TileSpriteIndex: 45
      m_TileMatrixIndex: 0
      m_TileColorIndex: 0
      m_TileObjectToInstantiateIndex: 65535
      dummyAlignment: 0
      m_AllTileFlags: 1073741825
  - first: {x: 7, y: 0, z: 0}
    second:
      serializedVersion: 2
      m_TileIndex: 28
      m_TileSpriteIndex: 28
      m_TileMatrixIndex: 0
      m_TileColorIndex: 0
      m_TileObjectToInstantiateIndex: 65535
      dummyAlignment: 0
      m_AllTileFlags: 1073741825
  - first: {x: 8, y: 0, z: 0}
    second:
      serializedVersion: 2
      m_TileIndex: 29
      m_TileSpriteIndex: 29
      m_TileMatrixIndex: 0
      m_TileColorIndex: 0
      m_TileObjectToInstantiateIndex: 65535
      dummyAlignment: 0
      m_AllTileFlags: 1073741825
  - first: {x: 9, y: 0, z: 0}
    second:
      serializedVersion: 2
      m_TileIndex: 30
      m_TileSpriteIndex: 30
      m_TileMatrixIndex: 0
      m_TileColorIndex: 0
      m_TileObjectToInstantiateIndex: 65535
      dummyAlignment: 0
      m_AllTileFlags: 1073741825
  - first: {x: 10, y: 0, z: 0}
    second:
      serializedVersion: 2
      m_TileIndex: 31
      m_TileSpriteIndex: 31
      m_TileMatrixIndex: 0
      m_TileColorIndex: 0
      m_TileObjectToInstantiateIndex: 65535
      dummyAlignment: 0
      m_AllTileFlags: 1073741825
  - first: {x: 11, y: 0, z: 0}
    second:
      serializedVersion: 2
      m_TileIndex: 32
      m_TileSpriteIndex: 32
      m_TileMatrixIndex: 0
      m_TileColorIndex: 0
      m_TileObjectToInstantiateIndex: 65535
      dummyAlignment: 0
      m_AllTileFlags: 1073741825
  - first: {x: 12, y: 0, z: 0}
    second:
      serializedVersion: 2
      m_TileIndex: 33
      m_TileSpriteIndex: 33
      m_TileMatrixIndex: 0
      m_TileColorIndex: 0
      m_TileObjectToInstantiateIndex: 65535
      dummyAlignment: 0
      m_AllTileFlags: 1073741825
  - first: {x: 13, y: 0, z: 0}
    second:
      serializedVersion: 2
      m_TileIndex: 34
      m_TileSpriteIndex: 34
      m_TileMatrixIndex: 0
      m_TileColorIndex: 0
      m_TileObjectToInstantiateIndex: 65535
      dummyAlignment: 0
      m_AllTileFlags: 1073741825
  - first: {x: 14, y: 0, z: 0}
    second:
      serializedVersion: 2
      m_TileIndex: 35
      m_TileSpriteIndex: 35
      m_TileMatrixIndex: 0
      m_TileColorIndex: 0
      m_TileObjectToInstantiateIndex: 65535
      dummyAlignment: 0
      m_AllTileFlags: 1073741825
  - first: {x: 15, y: 0, z: 0}
    second:
      serializedVersion: 2
      m_TileIndex: 36
      m_TileSpriteIndex: 36
      m_TileMatrixIndex: 0
      m_TileColorIndex: 0
      m_TileObjectToInstantiateIndex: 65535
      dummyAlignment: 0
      m_AllTileFlags: 1073741825
  - first: {x: -3, y: 1, z: 0}
    second:
      serializedVersion: 2
      m_TileIndex: 0
      m_TileSpriteIndex: 0
      m_TileMatrixIndex: 0
      m_TileColorIndex: 0
      m_TileObjectToInstantiateIndex: 65535
      dummyAlignment: 0
      m_AllTileFlags: 1073741825
  - first: {x: -2, y: 1, z: 0}
    second:
      serializedVersion: 2
      m_TileIndex: 1
      m_TileSpriteIndex: 1
      m_TileMatrixIndex: 0
      m_TileColorIndex: 0
      m_TileObjectToInstantiateIndex: 65535
      dummyAlignment: 0
      m_AllTileFlags: 1073741825
  - first: {x: -1, y: 1, z: 0}
    second:
      serializedVersion: 2
      m_TileIndex: 2
      m_TileSpriteIndex: 2
      m_TileMatrixIndex: 0
      m_TileColorIndex: 0
      m_TileObjectToInstantiateIndex: 65535
      dummyAlignment: 0
      m_AllTileFlags: 1073741825
  - first: {x: 0, y: 1, z: 0}
    second:
      serializedVersion: 2
      m_TileIndex: 3
      m_TileSpriteIndex: 3
      m_TileMatrixIndex: 0
      m_TileColorIndex: 0
      m_TileObjectToInstantiateIndex: 65535
      dummyAlignment: 0
      m_AllTileFlags: 1073741825
  - first: {x: 1, y: 1, z: 0}
    second:
      serializedVersion: 2
      m_TileIndex: 4
      m_TileSpriteIndex: 4
      m_TileMatrixIndex: 0
      m_TileColorIndex: 0
      m_TileObjectToInstantiateIndex: 65535
      dummyAlignment: 0
      m_AllTileFlags: 1073741825
  - first: {x: 2, y: 1, z: 0}
    second:
      serializedVersion: 2
      m_TileIndex: 5
      m_TileSpriteIndex: 5
      m_TileMatrixIndex: 0
      m_TileColorIndex: 0
      m_TileObjectToInstantiateIndex: 65535
      dummyAlignment: 0
      m_AllTileFlags: 1073741825
  - first: {x: 3, y: 1, z: 0}
    second:
      serializedVersion: 2
      m_TileIndex: 6
      m_TileSpriteIndex: 6
      m_TileMatrixIndex: 0
      m_TileColorIndex: 0
      m_TileObjectToInstantiateIndex: 65535
      dummyAlignment: 0
      m_AllTileFlags: 1073741825
  - first: {x: 4, y: 1, z: 0}
    second:
      serializedVersion: 2
      m_TileIndex: 7
      m_TileSpriteIndex: 7
      m_TileMatrixIndex: 0
      m_TileColorIndex: 0
      m_TileObjectToInstantiateIndex: 65535
      dummyAlignment: 0
      m_AllTileFlags: 1073741825
  - first: {x: 5, y: 1, z: 0}
    second:
      serializedVersion: 2
      m_TileIndex: 8
      m_TileSpriteIndex: 8
      m_TileMatrixIndex: 0
      m_TileColorIndex: 0
      m_TileObjectToInstantiateIndex: 65535
      dummyAlignment: 0
      m_AllTileFlags: 1073741825
  - first: {x: 6, y: 1, z: 0}
    second:
      serializedVersion: 2
      m_TileIndex: 9
      m_TileSpriteIndex: 27
      m_TileMatrixIndex: 0
      m_TileColorIndex: 0
      m_TileObjectToInstantiateIndex: 65535
      dummyAlignment: 0
      m_AllTileFlags: 1073741825
  - first: {x: 7, y: 1, z: 0}
    second:
      serializedVersion: 2
      m_TileIndex: 10
      m_TileSpriteIndex: 10
      m_TileMatrixIndex: 0
      m_TileColorIndex: 0
      m_TileObjectToInstantiateIndex: 65535
      dummyAlignment: 0
      m_AllTileFlags: 1073741825
  - first: {x: 8, y: 1, z: 0}
    second:
      serializedVersion: 2
      m_TileIndex: 11
      m_TileSpriteIndex: 11
      m_TileMatrixIndex: 0
      m_TileColorIndex: 0
      m_TileObjectToInstantiateIndex: 65535
      dummyAlignment: 0
      m_AllTileFlags: 1073741825
  - first: {x: 9, y: 1, z: 0}
    second:
      serializedVersion: 2
      m_TileIndex: 12
      m_TileSpriteIndex: 12
      m_TileMatrixIndex: 0
      m_TileColorIndex: 0
      m_TileObjectToInstantiateIndex: 65535
      dummyAlignment: 0
      m_AllTileFlags: 1073741825
  - first: {x: 10, y: 1, z: 0}
    second:
      serializedVersion: 2
      m_TileIndex: 13
      m_TileSpriteIndex: 13
      m_TileMatrixIndex: 0
      m_TileColorIndex: 0
      m_TileObjectToInstantiateIndex: 65535
      dummyAlignment: 0
      m_AllTileFlags: 1073741825
  - first: {x: 11, y: 1, z: 0}
    second:
      serializedVersion: 2
      m_TileIndex: 14
      m_TileSpriteIndex: 14
      m_TileMatrixIndex: 0
      m_TileColorIndex: 0
      m_TileObjectToInstantiateIndex: 65535
      dummyAlignment: 0
      m_AllTileFlags: 1073741825
  - first: {x: 12, y: 1, z: 0}
    second:
      serializedVersion: 2
      m_TileIndex: 15
      m_TileSpriteIndex: 15
      m_TileMatrixIndex: 0
      m_TileColorIndex: 0
      m_TileObjectToInstantiateIndex: 65535
      dummyAlignment: 0
      m_AllTileFlags: 1073741825
  - first: {x: 13, y: 1, z: 0}
    second:
      serializedVersion: 2
      m_TileIndex: 16
      m_TileSpriteIndex: 16
      m_TileMatrixIndex: 0
      m_TileColorIndex: 0
      m_TileObjectToInstantiateIndex: 65535
      dummyAlignment: 0
      m_AllTileFlags: 1073741825
  - first: {x: 14, y: 1, z: 0}
    second:
      serializedVersion: 2
      m_TileIndex: 17
      m_TileSpriteIndex: 17
      m_TileMatrixIndex: 0
      m_TileColorIndex: 0
      m_TileObjectToInstantiateIndex: 65535
      dummyAlignment: 0
      m_AllTileFlags: 1073741825
  - first: {x: 15, y: 1, z: 0}
    second:
      serializedVersion: 2
      m_TileIndex: 18
      m_TileSpriteIndex: 18
      m_TileMatrixIndex: 0
      m_TileColorIndex: 0
      m_TileObjectToInstantiateIndex: 65535
      dummyAlignment: 0
      m_AllTileFlags: 1073741825
  m_AnimatedTiles: {}
  m_TileAssetArray:
  - m_RefCount: 1
    m_Data: {fileID: 11400000, guid: dd07adfbc51e64e44add9dc823700cf4, type: 2}
  - m_RefCount: 1
    m_Data: {fileID: 11400000, guid: a3a966752f4f4dc4a99184e44d537bf0, type: 2}
  - m_RefCount: 1
    m_Data: {fileID: 11400000, guid: 6b21b68d7a465664f9f0e7b4ce2413bd, type: 2}
  - m_RefCount: 1
    m_Data: {fileID: 11400000, guid: 77f258e4d1083ef4fa314f54f6fe7cbc, type: 2}
  - m_RefCount: 1
    m_Data: {fileID: 11400000, guid: e3bfdc47e55003e47b6914f48533e371, type: 2}
  - m_RefCount: 1
    m_Data: {fileID: 11400000, guid: 3aaa1de4ef5ffad46b0383d4f1192c9f, type: 2}
  - m_RefCount: 1
    m_Data: {fileID: 11400000, guid: 9163bec152c8d474db1eb269ffebf40e, type: 2}
  - m_RefCount: 1
    m_Data: {fileID: 11400000, guid: 8b0ccca3e5bd0e647bd1e911ae8c5e30, type: 2}
  - m_RefCount: 1
    m_Data: {fileID: 11400000, guid: 43c05ec9026d6f248bef0c58ece5c264, type: 2}
  - m_RefCount: 1
    m_Data: {fileID: 11400000, guid: 806e87e99f904694a9527ab73d1b430d, type: 2}
  - m_RefCount: 1
    m_Data: {fileID: 11400000, guid: 3b679d631a7a8154282b36d0f5101c39, type: 2}
  - m_RefCount: 1
    m_Data: {fileID: 11400000, guid: c7326eafbc491f44c95a20b52a1b922f, type: 2}
  - m_RefCount: 1
    m_Data: {fileID: 11400000, guid: d115d8f189242e44d834dcf6e3ddd482, type: 2}
  - m_RefCount: 1
    m_Data: {fileID: 11400000, guid: 30a777e841b7d55409e51ba134763267, type: 2}
  - m_RefCount: 1
    m_Data: {fileID: 11400000, guid: c9181578a3ed428418126170ed9946ab, type: 2}
  - m_RefCount: 1
    m_Data: {fileID: 11400000, guid: c7414a79c1f66764f88fafad56a72b31, type: 2}
  - m_RefCount: 1
    m_Data: {fileID: 11400000, guid: 23e0bb815ea6c874faea6b298dda3810, type: 2}
  - m_RefCount: 1
    m_Data: {fileID: 11400000, guid: 636c767e1a272704b9e2905ae04cef86, type: 2}
  - m_RefCount: 1
    m_Data: {fileID: 11400000, guid: b2b4ba79571e7d34eac466044252c826, type: 2}
  - m_RefCount: 1
    m_Data: {fileID: 11400000, guid: a5aebd32813a1d04ba17ed11b3e5b23a, type: 2}
  - m_RefCount: 1
    m_Data: {fileID: 11400000, guid: fb44b58b48631d74db1563af8ce6e139, type: 2}
  - m_RefCount: 1
    m_Data: {fileID: 11400000, guid: 4977e7b34ef91ea46bbb31aeaa337927, type: 2}
  - m_RefCount: 1
    m_Data: {fileID: 11400000, guid: a0a82daf48ec1ae4f8383df40cea50e5, type: 2}
  - m_RefCount: 1
    m_Data: {fileID: 11400000, guid: 510ae3b6e178ca146be44725b8fce8c5, type: 2}
  - m_RefCount: 1
    m_Data: {fileID: 11400000, guid: 8ec2c2bae550f5242baa74be09125679, type: 2}
  - m_RefCount: 1
    m_Data: {fileID: 11400000, guid: 15608ecdfc7f1114283a1ca3f0679691, type: 2}
  - m_RefCount: 1
    m_Data: {fileID: 11400000, guid: 3bb8ae36f8142484e92d492dd3280dbd, type: 2}
  - m_RefCount: 1
    m_Data: {fileID: 11400000, guid: f804380564dcfb74e8863d45fd93fffc, type: 2}
  - m_RefCount: 1
    m_Data: {fileID: 11400000, guid: a23b49fcd44172d4c92c667a9074625f, type: 2}
  - m_RefCount: 1
    m_Data: {fileID: 11400000, guid: 59e3f8b96cb104b48b9ec443572bc1cb, type: 2}
  - m_RefCount: 1
    m_Data: {fileID: 11400000, guid: 0bb6b20e1b4d8354b8a2477ed900d66f, type: 2}
  - m_RefCount: 1
    m_Data: {fileID: 11400000, guid: bcef9b40cc52e0f4f84a811d0c1680e1, type: 2}
  - m_RefCount: 1
    m_Data: {fileID: 11400000, guid: b92a2b8212218c04ab59f78f2d30a645, type: 2}
  - m_RefCount: 1
    m_Data: {fileID: 11400000, guid: 4b0f23502f0ad2f4c8844693c393d3c7, type: 2}
  - m_RefCount: 1
    m_Data: {fileID: 11400000, guid: 88fd4dd661b7ecf4aa93e90c41a62663, type: 2}
  - m_RefCount: 1
    m_Data: {fileID: 11400000, guid: 443cb04782269b048977bf791b19c069, type: 2}
  - m_RefCount: 1
    m_Data: {fileID: 11400000, guid: 66970ece90cd2f5498d8a8335a4d3be7, type: 2}
  - m_RefCount: 1
    m_Data: {fileID: 11400000, guid: 6217f6e015c3f3248908dac74be70e9c, type: 2}
  - m_RefCount: 1
    m_Data: {fileID: 11400000, guid: acd21dfd15494a547b82fe2c86e67bcd, type: 2}
  - m_RefCount: 1
    m_Data: {fileID: 11400000, guid: 276bdb2cbdffa8e4697ed8818fee85ae, type: 2}
  - m_RefCount: 1
    m_Data: {fileID: 11400000, guid: aea33330a3712694b9be6ed7f0dc1144, type: 2}
  - m_RefCount: 1
    m_Data: {fileID: 11400000, guid: 2a722f41f0efcec468ebf8205ce41cd3, type: 2}
  - m_RefCount: 2
    m_Data: {fileID: 11400000, guid: 0996d51c8e5768948bccf3dd1804dc74, type: 2}
  - m_RefCount: 1
    m_Data: {fileID: 11400000, guid: 17a435ff7de700e49914df3ad68ed51d, type: 2}
  - m_RefCount: 1
    m_Data: {fileID: 11400000, guid: 1eae66f8e2654384eaa277ef393ba8fd, type: 2}
  - m_RefCount: 1
    m_Data: {fileID: 11400000, guid: 18d72d7850c971c4088881f6152c146f, type: 2}
  - m_RefCount: 1
    m_Data: {fileID: 11400000, guid: 504ed5a10f825c447ab5a0225cc0e56e, type: 2}
  - m_RefCount: 1
    m_Data: {fileID: 11400000, guid: 76bedcd608b031a46a910491c3678c74, type: 2}
  - m_RefCount: 1
    m_Data: {fileID: 11400000, guid: 002bb14cce82a3745928c9cc7e481934, type: 2}
  - m_RefCount: 1
    m_Data: {fileID: 11400000, guid: 8469758b1301d1246878dc2c6afce491, type: 2}
  - m_RefCount: 1
    m_Data: {fileID: 11400000, guid: a54fc8171f1da3745a17f171749d1ba5, type: 2}
  - m_RefCount: 1
    m_Data: {fileID: 11400000, guid: 4a6a95df61d508a49863be1c3ae58d20, type: 2}
  - m_RefCount: 1
    m_Data: {fileID: 11400000, guid: 4eb586f5d80bfb3448efef3b8932e918, type: 2}
  - m_RefCount: 1
    m_Data: {fileID: 11400000, guid: 03f3698105a604b47a21189bdc68e93c, type: 2}
  - m_RefCount: 1
    m_Data: {fileID: 11400000, guid: b0ee7cc4b51b6634c87acafd9d8e4da4, type: 2}
  - m_RefCount: 1
    m_Data: {fileID: 11400000, guid: 33352faf16efe0f4aa8bf00d2c5ecc9c, type: 2}
  - m_RefCount: 1
    m_Data: {fileID: 11400000, guid: b9d839882b54e654ca3b7755620781ea, type: 2}
  - m_RefCount: 1
    m_Data: {fileID: 11400000, guid: a7659a5f0125cbe48bf2c5396a372147, type: 2}
  - m_RefCount: 1
    m_Data: {fileID: 11400000, guid: 60844274526c70c4a8e6be84bc5c487a, type: 2}
  - m_RefCount: 1
    m_Data: {fileID: 11400000, guid: 5ae1da18a92fe4a41b4b092a0d054b28, type: 2}
  - m_RefCount: 1
    m_Data: {fileID: 11400000, guid: 7cf367d94b47e1e49bd06cdf7e869c18, type: 2}
  - m_RefCount: 2
    m_Data: {fileID: 11400000, guid: 2f0981915066cea4ea3fb506a6e976e2, type: 2}
  - m_RefCount: 1
    m_Data: {fileID: 11400000, guid: 415013d121a0efc449efd953623c68c7, type: 2}
  - m_RefCount: 1
    m_Data: {fileID: 11400000, guid: c11ec1273c74c39409313eee7b17b654, type: 2}
  - m_RefCount: 1
    m_Data: {fileID: 11400000, guid: 6929ce5ce7a983b4e95ef4f1ebae541f, type: 2}
  - m_RefCount: 1
    m_Data: {fileID: 11400000, guid: d2759ac4d3715714ba610890ad7c7c40, type: 2}
  - m_RefCount: 1
    m_Data: {fileID: 11400000, guid: 5d2d53165c1b8934194d5784671fd025, type: 2}
  - m_RefCount: 1
    m_Data: {fileID: 11400000, guid: b5a370127b399c842b94d8b84d79f32c, type: 2}
  - m_RefCount: 1
    m_Data: {fileID: 11400000, guid: c83b35bfe13834142871547a18f4f64e, type: 2}
  - m_RefCount: 1
    m_Data: {fileID: 11400000, guid: 001f6aee15f038b43a44db468f235d51, type: 2}
  - m_RefCount: 1
    m_Data: {fileID: 11400000, guid: 1c309118b650fb042a8126fcdb77ad92, type: 2}
  - m_RefCount: 1
    m_Data: {fileID: 11400000, guid: 130a9ceb7e081cd489415a469f986220, type: 2}
  - m_RefCount: 1
    m_Data: {fileID: 11400000, guid: 804ad6759d5b12b419eafbcab77ce20a, type: 2}
  - m_RefCount: 1
    m_Data: {fileID: 11400000, guid: 11cd42457541f624393a21efdcecf89f, type: 2}
  - m_RefCount: 1
    m_Data: {fileID: 11400000, guid: 2308514e1dc268047b547b3b4576c0df, type: 2}
  - m_RefCount: 1
    m_Data: {fileID: 11400000, guid: 32236190304e11c469571fd57d1ec8fc, type: 2}
  - m_RefCount: 1
    m_Data: {fileID: 11400000, guid: c4e199682e28ddd4cb83242bbbe2be71, type: 2}
  - m_RefCount: 1
    m_Data: {fileID: 11400000, guid: 190fadc3379374e4daa57ec8de227085, type: 2}
  - m_RefCount: 1
    m_Data: {fileID: 11400000, guid: 65ac08d1fdeb78844b8f2bd261177af1, type: 2}
  - m_RefCount: 1
    m_Data: {fileID: 11400000, guid: 2c7781513a5088d4ba00dbc1110ff56e, type: 2}
  - m_RefCount: 0
    m_Data: {fileID: 0}
  - m_RefCount: 1
    m_Data: {fileID: 11400000, guid: bcb373b6979d1aa43a90d8df43e543ce, type: 2}
  - m_RefCount: 1
    m_Data: {fileID: 11400000, guid: c2d27d6374f95b94f8e2282968c5ca08, type: 2}
  - m_RefCount: 1
    m_Data: {fileID: 11400000, guid: 5138f242bb95ce544b7141c368d8704d, type: 2}
  - m_RefCount: 1
    m_Data: {fileID: 11400000, guid: 9c184781a3082974abdf26558165da72, type: 2}
  - m_RefCount: 1
    m_Data: {fileID: 11400000, guid: 8e114ad1b56fbda4993026da311d2d42, type: 2}
  - m_RefCount: 1
    m_Data: {fileID: 11400000, guid: 36a17e0c3ca597448b99f9a0282614c4, type: 2}
  - m_RefCount: 1
    m_Data: {fileID: 11400000, guid: a0bf06ba609303d43b2e1860b2569e7f, type: 2}
  - m_RefCount: 1
    m_Data: {fileID: 11400000, guid: 3e3d0af13302f0e49b54c0ed348fe340, type: 2}
  - m_RefCount: 1
    m_Data: {fileID: 11400000, guid: dd2c98b665e17cb4390648398736a2d3, type: 2}
  - m_RefCount: 1
    m_Data: {fileID: 11400000, guid: 2f6dba99fba098a41a9a91098d1d64af, type: 2}
  - m_RefCount: 1
    m_Data: {fileID: 11400000, guid: e1833e16d140a5648b4cf112218a7d83, type: 2}
  - m_RefCount: 1
    m_Data: {fileID: 11400000, guid: 2f59c81cae4fd62428f88437346c0c64, type: 2}
  - m_RefCount: 1
    m_Data: {fileID: 11400000, guid: 84ac51e7ba6b11e46978be288368be11, type: 2}
  - m_RefCount: 1
    m_Data: {fileID: 11400000, guid: 54a791c9d7e629848911ab6ff0e64ecc, type: 2}
  - m_RefCount: 1
    m_Data: {fileID: 11400000, guid: 41daca9934443b141b09251406b91510, type: 2}
  - m_RefCount: 1
    m_Data: {fileID: 11400000, guid: c1392a93f3e10844d80c1d6311e6dec2, type: 2}
  - m_RefCount: 1
    m_Data: {fileID: 11400000, guid: a03ec9888960f824c881c28fb5ba9534, type: 2}
  - m_RefCount: 1
    m_Data: {fileID: 11400000, guid: 228d51e155517c1438407acf793a68ed, type: 2}
  - m_RefCount: 0
    m_Data: {fileID: 0}
  - m_RefCount: 1
    m_Data: {fileID: 11400000, guid: 669984fcb9f6dbd4fafe87577e138cdd, type: 2}
  - m_RefCount: 1
    m_Data: {fileID: 11400000, guid: 414485c3df78e15409c2ebac7c865387, type: 2}
  - m_RefCount: 1
    m_Data: {fileID: 11400000, guid: f29825d41e369ba47960d8cfe73bcf63, type: 2}
  - m_RefCount: 1
    m_Data: {fileID: 11400000, guid: 95dc55f8c7806dc42974c517a39d63d8, type: 2}
  - m_RefCount: 1
    m_Data: {fileID: 11400000, guid: 870f0e50356729b418035e1dee3af4cb, type: 2}
  - m_RefCount: 1
    m_Data: {fileID: 11400000, guid: 9f2866dc2dfc59b409810272a60dc08f, type: 2}
  - m_RefCount: 1
    m_Data: {fileID: 11400000, guid: 9984e6552c972ec4ab2d9fa87348fc82, type: 2}
  - m_RefCount: 1
    m_Data: {fileID: 11400000, guid: 72708621c499e244eb4575ff71241878, type: 2}
  - m_RefCount: 1
    m_Data: {fileID: 11400000, guid: 358e4a9f6e37e41478249792129bd011, type: 2}
  - m_RefCount: 1
    m_Data: {fileID: 11400000, guid: 800f4b6f32ee807439b7bff251a265cd, type: 2}
  - m_RefCount: 1
    m_Data: {fileID: 11400000, guid: 1505c111c801f824792cc43c4a4aa869, type: 2}
  - m_RefCount: 1
    m_Data: {fileID: 11400000, guid: 5368098cc4585384898ddf60417aa426, type: 2}
  - m_RefCount: 1
    m_Data: {fileID: 11400000, guid: 5fb6352a72d9ad04d93aa66f9e857fa2, type: 2}
  - m_RefCount: 1
    m_Data: {fileID: 11400000, guid: edd1dfe46e44b2348a40b29fbac694d1, type: 2}
  - m_RefCount: 1
    m_Data: {fileID: 11400000, guid: df562ad86f46a0544a50912b2460a27c, type: 2}
  - m_RefCount: 1
    m_Data: {fileID: 11400000, guid: acd8208e516625347af10c92b5af1ff1, type: 2}
  - m_RefCount: 1
    m_Data: {fileID: 11400000, guid: c5e905fbee55a744a8260da82af8a989, type: 2}
  - m_RefCount: 1
    m_Data: {fileID: 11400000, guid: 8b56a8f1e808ee04d8e53c4fe00cb48b, type: 2}
  - m_RefCount: 1
    m_Data: {fileID: 11400000, guid: 55190bb0d8aa0de48a821f3500bd0355, type: 2}
  - m_RefCount: 1
    m_Data: {fileID: 11400000, guid: 549eae396a78f7d4e83ca7a7cbabaa26, type: 2}
  - m_RefCount: 1
    m_Data: {fileID: 11400000, guid: ed102fb460425da4087e32bc8bbee2df, type: 2}
  - m_RefCount: 1
    m_Data: {fileID: 11400000, guid: e76cd675f4aa6464f9f7eff37bfd52a8, type: 2}
  - m_RefCount: 1
    m_Data: {fileID: 11400000, guid: c1f0898263507aa41ae9972b7a508efc, type: 2}
  - m_RefCount: 1
    m_Data: {fileID: 11400000, guid: a02352f300cc0054f91c56e12bef8e45, type: 2}
  - m_RefCount: 1
    m_Data: {fileID: 11400000, guid: e99bb10e1e3966a4da640d74e07feb7d, type: 2}
  - m_RefCount: 1
    m_Data: {fileID: 11400000, guid: 3b0c8ce219ca0a54fa37f1dc34265d5f, type: 2}
  - m_RefCount: 1
    m_Data: {fileID: 11400000, guid: 2aac9784bbcaf064d84091b387c9550c, type: 2}
  - m_RefCount: 1
    m_Data: {fileID: 11400000, guid: 8e51758ba320d794bae2003b0c00ea21, type: 2}
  - m_RefCount: 1
    m_Data: {fileID: 11400000, guid: d72cc0ddd23ef3141ad246bf1cea3153, type: 2}
  - m_RefCount: 1
    m_Data: {fileID: 11400000, guid: e2c4cc164b842ba41a37ee7077df971d, type: 2}
  - m_RefCount: 1
    m_Data: {fileID: 11400000, guid: 2185a5e9937e3174cb742a65465619ba, type: 2}
  - m_RefCount: 1
    m_Data: {fileID: 11400000, guid: b01bfa037ee93264fa497957ba53b213, type: 2}
  - m_RefCount: 1
    m_Data: {fileID: 11400000, guid: d539db7a85f361942919f85464ef6516, type: 2}
  - m_RefCount: 1
    m_Data: {fileID: 11400000, guid: 907b3d3ae7afa9d4fb30a6d4f17da6df, type: 2}
  - m_RefCount: 1
    m_Data: {fileID: 11400000, guid: e9ae544b07e097b4087cb2a821ebd306, type: 2}
  - m_RefCount: 1
    m_Data: {fileID: 11400000, guid: b3a69235ad12a4b4cae6f62642498c17, type: 2}
  - m_RefCount: 1
    m_Data: {fileID: 11400000, guid: 408be52ae8dcdcf418bf780b797f2e4c, type: 2}
  - m_RefCount: 1
    m_Data: {fileID: 11400000, guid: 76d2df40aceae564381bb3c8971a332d, type: 2}
  - m_RefCount: 1
    m_Data: {fileID: 11400000, guid: 9adbdff21d74c894f80ebb761ebbc8f2, type: 2}
  - m_RefCount: 1
    m_Data: {fileID: 11400000, guid: 00fa84a1561444e4abdb3bfd1c4fc585, type: 2}
  - m_RefCount: 1
    m_Data: {fileID: 11400000, guid: 4bcdee37db2b22e48887288a9656b549, type: 2}
  - m_RefCount: 1
    m_Data: {fileID: 11400000, guid: cdd67ceaafa5fab40a71a19e69802f26, type: 2}
  - m_RefCount: 1
    m_Data: {fileID: 11400000, guid: ad31c94893baf2d4b9dfcaf46402c44c, type: 2}
  - m_RefCount: 1
    m_Data: {fileID: 11400000, guid: 0a5f10a69e2b42b4f8797943e764b175, type: 2}
  - m_RefCount: 1
    m_Data: {fileID: 11400000, guid: 3233fd0b1fdd3e440867d3370a28b450, type: 2}
  - m_RefCount: 1
    m_Data: {fileID: 11400000, guid: 579d2041f090e224abfed05181e56ca0, type: 2}
  - m_RefCount: 1
    m_Data: {fileID: 11400000, guid: 2e9d7c6abbe01e34abc698bd3e1b8128, type: 2}
  - m_RefCount: 1
    m_Data: {fileID: 11400000, guid: ea3dea147cbe79c40aad7b582e63e01c, type: 2}
  - m_RefCount: 1
    m_Data: {fileID: 11400000, guid: 42ae7b571d511204dbe2aacbbc3d5120, type: 2}
  - m_RefCount: 1
    m_Data: {fileID: 11400000, guid: 01bf71f4f6d217747bd643918da6d43b, type: 2}
  - m_RefCount: 1
    m_Data: {fileID: 11400000, guid: e590173373828bc428fe43f4d5c5777c, type: 2}
  m_TileSpriteArray:
  - m_RefCount: 1
    m_Data: {fileID: -897154673, guid: bbed3e43d899873409f7670351a61bb6, type: 3}
  - m_RefCount: 1
    m_Data: {fileID: 431462425, guid: bbed3e43d899873409f7670351a61bb6, type: 3}
  - m_RefCount: 1
    m_Data: {fileID: -1861065217, guid: bbed3e43d899873409f7670351a61bb6, type: 3}
  - m_RefCount: 1
    m_Data: {fileID: 1490951371, guid: bbed3e43d899873409f7670351a61bb6, type: 3}
  - m_RefCount: 1
    m_Data: {fileID: -388145694, guid: bbed3e43d899873409f7670351a61bb6, type: 3}
  - m_RefCount: 1
    m_Data: {fileID: 84462536, guid: bbed3e43d899873409f7670351a61bb6, type: 3}
  - m_RefCount: 1
    m_Data: {fileID: -355477292, guid: bbed3e43d899873409f7670351a61bb6, type: 3}
  - m_RefCount: 1
    m_Data: {fileID: -81772546, guid: bbed3e43d899873409f7670351a61bb6, type: 3}
  - m_RefCount: 1
    m_Data: {fileID: 1767967376, guid: bbed3e43d899873409f7670351a61bb6, type: 3}
  - m_RefCount: 0
    m_Data: {fileID: 0}
  - m_RefCount: 1
    m_Data: {fileID: 618005414, guid: bbed3e43d899873409f7670351a61bb6, type: 3}
  - m_RefCount: 1
    m_Data: {fileID: -1119660963, guid: bbed3e43d899873409f7670351a61bb6, type: 3}
  - m_RefCount: 1
    m_Data: {fileID: 809883056, guid: bbed3e43d899873409f7670351a61bb6, type: 3}
  - m_RefCount: 1
    m_Data: {fileID: 336960548, guid: bbed3e43d899873409f7670351a61bb6, type: 3}
  - m_RefCount: 1
    m_Data: {fileID: 463663329, guid: bbed3e43d899873409f7670351a61bb6, type: 3}
  - m_RefCount: 1
    m_Data: {fileID: 1765843076, guid: bbed3e43d899873409f7670351a61bb6, type: 3}
  - m_RefCount: 1
    m_Data: {fileID: -2132645596, guid: bbed3e43d899873409f7670351a61bb6, type: 3}
  - m_RefCount: 1
    m_Data: {fileID: 1639731718, guid: bbed3e43d899873409f7670351a61bb6, type: 3}
  - m_RefCount: 1
    m_Data: {fileID: -1920789618, guid: bbed3e43d899873409f7670351a61bb6, type: 3}
  - m_RefCount: 1
    m_Data: {fileID: 1932485648, guid: bbed3e43d899873409f7670351a61bb6, type: 3}
  - m_RefCount: 1
    m_Data: {fileID: -2029333432, guid: bbed3e43d899873409f7670351a61bb6, type: 3}
  - m_RefCount: 1
    m_Data: {fileID: 1913144404, guid: bbed3e43d899873409f7670351a61bb6, type: 3}
  - m_RefCount: 1
    m_Data: {fileID: -618571881, guid: bbed3e43d899873409f7670351a61bb6, type: 3}
  - m_RefCount: 1
    m_Data: {fileID: -2108320989, guid: bbed3e43d899873409f7670351a61bb6, type: 3}
  - m_RefCount: 1
    m_Data: {fileID: -1458254608, guid: bbed3e43d899873409f7670351a61bb6, type: 3}
  - m_RefCount: 1
    m_Data: {fileID: 1925829985, guid: bbed3e43d899873409f7670351a61bb6, type: 3}
  - m_RefCount: 0
    m_Data: {fileID: 0}
  - m_RefCount: 1
    m_Data: {fileID: -879955944, guid: bbed3e43d899873409f7670351a61bb6, type: 3}
  - m_RefCount: 1
    m_Data: {fileID: 1254853485, guid: bbed3e43d899873409f7670351a61bb6, type: 3}
  - m_RefCount: 1
    m_Data: {fileID: 352852952, guid: bbed3e43d899873409f7670351a61bb6, type: 3}
  - m_RefCount: 1
    m_Data: {fileID: 532540034, guid: bbed3e43d899873409f7670351a61bb6, type: 3}
  - m_RefCount: 1
    m_Data: {fileID: 403936505, guid: bbed3e43d899873409f7670351a61bb6, type: 3}
  - m_RefCount: 1
    m_Data: {fileID: 1373465198, guid: bbed3e43d899873409f7670351a61bb6, type: 3}
  - m_RefCount: 1
    m_Data: {fileID: 1981712489, guid: bbed3e43d899873409f7670351a61bb6, type: 3}
  - m_RefCount: 1
    m_Data: {fileID: 2012710405, guid: bbed3e43d899873409f7670351a61bb6, type: 3}
  - m_RefCount: 1
    m_Data: {fileID: 353152806, guid: bbed3e43d899873409f7670351a61bb6, type: 3}
  - m_RefCount: 1
    m_Data: {fileID: 676051987, guid: bbed3e43d899873409f7670351a61bb6, type: 3}
  - m_RefCount: 1
    m_Data: {fileID: -380454108, guid: bbed3e43d899873409f7670351a61bb6, type: 3}
  - m_RefCount: 1
    m_Data: {fileID: -599654661, guid: bbed3e43d899873409f7670351a61bb6, type: 3}
  - m_RefCount: 1
    m_Data: {fileID: 890965137, guid: bbed3e43d899873409f7670351a61bb6, type: 3}
  - m_RefCount: 1
    m_Data: {fileID: -214986192, guid: bbed3e43d899873409f7670351a61bb6, type: 3}
  - m_RefCount: 1
    m_Data: {fileID: 1542944177, guid: bbed3e43d899873409f7670351a61bb6, type: 3}
  - m_RefCount: 2
    m_Data: {fileID: 1880929417, guid: bbed3e43d899873409f7670351a61bb6, type: 3}
  - m_RefCount: 1
    m_Data: {fileID: 1796900810, guid: bbed3e43d899873409f7670351a61bb6, type: 3}
  - m_RefCount: 1
    m_Data: {fileID: 1045226780, guid: bbed3e43d899873409f7670351a61bb6, type: 3}
  - m_RefCount: 1
    m_Data: {fileID: -1479163622, guid: bbed3e43d899873409f7670351a61bb6, type: 3}
  - m_RefCount: 1
    m_Data: {fileID: 1609553301, guid: bbed3e43d899873409f7670351a61bb6, type: 3}
  - m_RefCount: 1
    m_Data: {fileID: -466715176, guid: bbed3e43d899873409f7670351a61bb6, type: 3}
  - m_RefCount: 1
    m_Data: {fileID: 1956397754, guid: bbed3e43d899873409f7670351a61bb6, type: 3}
  - m_RefCount: 1
    m_Data: {fileID: 1747917778, guid: bbed3e43d899873409f7670351a61bb6, type: 3}
  - m_RefCount: 1
    m_Data: {fileID: -270929825, guid: bbed3e43d899873409f7670351a61bb6, type: 3}
  - m_RefCount: 1
    m_Data: {fileID: 1172973614, guid: bbed3e43d899873409f7670351a61bb6, type: 3}
  - m_RefCount: 1
    m_Data: {fileID: 1036191952, guid: bbed3e43d899873409f7670351a61bb6, type: 3}
  - m_RefCount: 1
    m_Data: {fileID: -1399620474, guid: bbed3e43d899873409f7670351a61bb6, type: 3}
  - m_RefCount: 1
    m_Data: {fileID: -1105379429, guid: bbed3e43d899873409f7670351a61bb6, type: 3}
  - m_RefCount: 1
    m_Data: {fileID: 1961681200, guid: bbed3e43d899873409f7670351a61bb6, type: 3}
  - m_RefCount: 1
    m_Data: {fileID: 339525602, guid: bbed3e43d899873409f7670351a61bb6, type: 3}
  - m_RefCount: 1
    m_Data: {fileID: 675898772, guid: bbed3e43d899873409f7670351a61bb6, type: 3}
  - m_RefCount: 1
    m_Data: {fileID: -933905248, guid: bbed3e43d899873409f7670351a61bb6, type: 3}
  - m_RefCount: 1
    m_Data: {fileID: -1868315477, guid: bbed3e43d899873409f7670351a61bb6, type: 3}
  - m_RefCount: 1
    m_Data: {fileID: 912797244, guid: bbed3e43d899873409f7670351a61bb6, type: 3}
  - m_RefCount: 2
    m_Data: {fileID: -514047938, guid: bbed3e43d899873409f7670351a61bb6, type: 3}
  - m_RefCount: 1
    m_Data: {fileID: -1713859578, guid: bbed3e43d899873409f7670351a61bb6, type: 3}
  - m_RefCount: 1
    m_Data: {fileID: -1681977425, guid: bbed3e43d899873409f7670351a61bb6, type: 3}
  - m_RefCount: 1
    m_Data: {fileID: -1865930451, guid: bbed3e43d899873409f7670351a61bb6, type: 3}
  - m_RefCount: 1
    m_Data: {fileID: 582925914, guid: bbed3e43d899873409f7670351a61bb6, type: 3}
  - m_RefCount: 1
    m_Data: {fileID: 1277378551, guid: bbed3e43d899873409f7670351a61bb6, type: 3}
  - m_RefCount: 1
    m_Data: {fileID: 2065808684, guid: bbed3e43d899873409f7670351a61bb6, type: 3}
  - m_RefCount: 1
    m_Data: {fileID: 1670143702, guid: bbed3e43d899873409f7670351a61bb6, type: 3}
  - m_RefCount: 1
    m_Data: {fileID: 649385296, guid: bbed3e43d899873409f7670351a61bb6, type: 3}
  - m_RefCount: 1
    m_Data: {fileID: -1693445325, guid: bbed3e43d899873409f7670351a61bb6, type: 3}
  - m_RefCount: 1
    m_Data: {fileID: 739020995, guid: bbed3e43d899873409f7670351a61bb6, type: 3}
  - m_RefCount: 1
    m_Data: {fileID: -584932026, guid: bbed3e43d899873409f7670351a61bb6, type: 3}
  - m_RefCount: 1
    m_Data: {fileID: -935878839, guid: bbed3e43d899873409f7670351a61bb6, type: 3}
  - m_RefCount: 1
    m_Data: {fileID: -984044817, guid: bbed3e43d899873409f7670351a61bb6, type: 3}
  - m_RefCount: 1
    m_Data: {fileID: 1979804594, guid: bbed3e43d899873409f7670351a61bb6, type: 3}
  - m_RefCount: 1
    m_Data: {fileID: -718395988, guid: bbed3e43d899873409f7670351a61bb6, type: 3}
  - m_RefCount: 1
    m_Data: {fileID: 639766541, guid: bbed3e43d899873409f7670351a61bb6, type: 3}
  - m_RefCount: 1
    m_Data: {fileID: 890956347, guid: bbed3e43d899873409f7670351a61bb6, type: 3}
  - m_RefCount: 1
    m_Data: {fileID: -1560742580, guid: bbed3e43d899873409f7670351a61bb6, type: 3}
  - m_RefCount: 1
    m_Data: {fileID: -1968566896, guid: bbed3e43d899873409f7670351a61bb6, type: 3}
  - m_RefCount: 1
    m_Data: {fileID: 2131720145, guid: bbed3e43d899873409f7670351a61bb6, type: 3}
  - m_RefCount: 1
    m_Data: {fileID: -979586572, guid: bbed3e43d899873409f7670351a61bb6, type: 3}
  - m_RefCount: 1
    m_Data: {fileID: -981876255, guid: bbed3e43d899873409f7670351a61bb6, type: 3}
  - m_RefCount: 1
    m_Data: {fileID: 1433796402, guid: bbed3e43d899873409f7670351a61bb6, type: 3}
  - m_RefCount: 1
    m_Data: {fileID: -671076715, guid: bbed3e43d899873409f7670351a61bb6, type: 3}
  - m_RefCount: 1
    m_Data: {fileID: -1663050043, guid: bbed3e43d899873409f7670351a61bb6, type: 3}
  - m_RefCount: 1
    m_Data: {fileID: 608232827, guid: bbed3e43d899873409f7670351a61bb6, type: 3}
  - m_RefCount: 1
    m_Data: {fileID: 1118225977, guid: bbed3e43d899873409f7670351a61bb6, type: 3}
  - m_RefCount: 1
    m_Data: {fileID: -2094277729, guid: bbed3e43d899873409f7670351a61bb6, type: 3}
  - m_RefCount: 1
    m_Data: {fileID: 677370860, guid: bbed3e43d899873409f7670351a61bb6, type: 3}
  - m_RefCount: 1
    m_Data: {fileID: 1067049202, guid: bbed3e43d899873409f7670351a61bb6, type: 3}
  - m_RefCount: 1
    m_Data: {fileID: 1150592033, guid: bbed3e43d899873409f7670351a61bb6, type: 3}
  - m_RefCount: 1
    m_Data: {fileID: 729094232, guid: bbed3e43d899873409f7670351a61bb6, type: 3}
  - m_RefCount: 1
    m_Data: {fileID: -1669986332, guid: bbed3e43d899873409f7670351a61bb6, type: 3}
  - m_RefCount: 1
    m_Data: {fileID: 1955923434, guid: bbed3e43d899873409f7670351a61bb6, type: 3}
  - m_RefCount: 1
    m_Data: {fileID: 2049252342, guid: bbed3e43d899873409f7670351a61bb6, type: 3}
  - m_RefCount: 1
    m_Data: {fileID: -42404858, guid: bbed3e43d899873409f7670351a61bb6, type: 3}
  - m_RefCount: 1
    m_Data: {fileID: 1725252902, guid: bbed3e43d899873409f7670351a61bb6, type: 3}
  - m_RefCount: 1
    m_Data: {fileID: -1838968981, guid: bbed3e43d899873409f7670351a61bb6, type: 3}
  - m_RefCount: 1
    m_Data: {fileID: -1659219692, guid: bbed3e43d899873409f7670351a61bb6, type: 3}
  - m_RefCount: 1
    m_Data: {fileID: -335059796, guid: bbed3e43d899873409f7670351a61bb6, type: 3}
  - m_RefCount: 1
    m_Data: {fileID: -1980662864, guid: bbed3e43d899873409f7670351a61bb6, type: 3}
  - m_RefCount: 1
    m_Data: {fileID: -111872621, guid: bbed3e43d899873409f7670351a61bb6, type: 3}
  - m_RefCount: 1
    m_Data: {fileID: 1732669485, guid: bbed3e43d899873409f7670351a61bb6, type: 3}
  - m_RefCount: 1
    m_Data: {fileID: -87071754, guid: bbed3e43d899873409f7670351a61bb6, type: 3}
  - m_RefCount: 1
    m_Data: {fileID: 11066216, guid: bbed3e43d899873409f7670351a61bb6, type: 3}
  - m_RefCount: 1
    m_Data: {fileID: 1047126061, guid: bbed3e43d899873409f7670351a61bb6, type: 3}
  - m_RefCount: 1
    m_Data: {fileID: 2131568440, guid: bbed3e43d899873409f7670351a61bb6, type: 3}
  - m_RefCount: 1
    m_Data: {fileID: 317833552, guid: bbed3e43d899873409f7670351a61bb6, type: 3}
  - m_RefCount: 1
    m_Data: {fileID: 522210642, guid: bbed3e43d899873409f7670351a61bb6, type: 3}
  - m_RefCount: 1
    m_Data: {fileID: 1319191744, guid: bbed3e43d899873409f7670351a61bb6, type: 3}
  - m_RefCount: 1
    m_Data: {fileID: 1629288863, guid: bbed3e43d899873409f7670351a61bb6, type: 3}
  - m_RefCount: 1
    m_Data: {fileID: -1663506599, guid: bbed3e43d899873409f7670351a61bb6, type: 3}
  - m_RefCount: 1
    m_Data: {fileID: 83609464, guid: bbed3e43d899873409f7670351a61bb6, type: 3}
  - m_RefCount: 1
    m_Data: {fileID: 1899039335, guid: bbed3e43d899873409f7670351a61bb6, type: 3}
  - m_RefCount: 1
    m_Data: {fileID: 1973106100, guid: bbed3e43d899873409f7670351a61bb6, type: 3}
  - m_RefCount: 1
    m_Data: {fileID: -1505938097, guid: bbed3e43d899873409f7670351a61bb6, type: 3}
  - m_RefCount: 1
    m_Data: {fileID: 17510661, guid: bbed3e43d899873409f7670351a61bb6, type: 3}
  - m_RefCount: 1
    m_Data: {fileID: -2035180479, guid: bbed3e43d899873409f7670351a61bb6, type: 3}
  - m_RefCount: 1
    m_Data: {fileID: 1383481231, guid: bbed3e43d899873409f7670351a61bb6, type: 3}
  - m_RefCount: 1
    m_Data: {fileID: -1964318405, guid: bbed3e43d899873409f7670351a61bb6, type: 3}
  - m_RefCount: 1
    m_Data: {fileID: 253802708, guid: bbed3e43d899873409f7670351a61bb6, type: 3}
  - m_RefCount: 1
    m_Data: {fileID: -997484974, guid: bbed3e43d899873409f7670351a61bb6, type: 3}
  - m_RefCount: 1
    m_Data: {fileID: -1122792046, guid: bbed3e43d899873409f7670351a61bb6, type: 3}
  - m_RefCount: 1
    m_Data: {fileID: 1440883108, guid: bbed3e43d899873409f7670351a61bb6, type: 3}
  - m_RefCount: 1
    m_Data: {fileID: 59312860, guid: bbed3e43d899873409f7670351a61bb6, type: 3}
  - m_RefCount: 1
    m_Data: {fileID: -220185607, guid: bbed3e43d899873409f7670351a61bb6, type: 3}
  - m_RefCount: 1
    m_Data: {fileID: -143424887, guid: bbed3e43d899873409f7670351a61bb6, type: 3}
  - m_RefCount: 1
    m_Data: {fileID: -673758809, guid: bbed3e43d899873409f7670351a61bb6, type: 3}
  - m_RefCount: 1
    m_Data: {fileID: -163162983, guid: bbed3e43d899873409f7670351a61bb6, type: 3}
  - m_RefCount: 1
    m_Data: {fileID: -1260228950, guid: bbed3e43d899873409f7670351a61bb6, type: 3}
  - m_RefCount: 1
    m_Data: {fileID: 951495864, guid: bbed3e43d899873409f7670351a61bb6, type: 3}
  - m_RefCount: 1
    m_Data: {fileID: 725184372, guid: bbed3e43d899873409f7670351a61bb6, type: 3}
  - m_RefCount: 1
    m_Data: {fileID: 1889861579, guid: bbed3e43d899873409f7670351a61bb6, type: 3}
  - m_RefCount: 1
    m_Data: {fileID: -733678591, guid: bbed3e43d899873409f7670351a61bb6, type: 3}
  - m_RefCount: 1
    m_Data: {fileID: 1058861419, guid: bbed3e43d899873409f7670351a61bb6, type: 3}
  - m_RefCount: 1
    m_Data: {fileID: -918444118, guid: bbed3e43d899873409f7670351a61bb6, type: 3}
  - m_RefCount: 1
    m_Data: {fileID: 1961744708, guid: bbed3e43d899873409f7670351a61bb6, type: 3}
  - m_RefCount: 1
    m_Data: {fileID: 1448983086, guid: bbed3e43d899873409f7670351a61bb6, type: 3}
  - m_RefCount: 1
    m_Data: {fileID: 2038268196, guid: bbed3e43d899873409f7670351a61bb6, type: 3}
  - m_RefCount: 1
    m_Data: {fileID: -1358894711, guid: bbed3e43d899873409f7670351a61bb6, type: 3}
  - m_RefCount: 1
    m_Data: {fileID: 256485156, guid: bbed3e43d899873409f7670351a61bb6, type: 3}
  - m_RefCount: 1
    m_Data: {fileID: 1575677796, guid: bbed3e43d899873409f7670351a61bb6, type: 3}
  - m_RefCount: 1
    m_Data: {fileID: 740155749, guid: bbed3e43d899873409f7670351a61bb6, type: 3}
  - m_RefCount: 1
    m_Data: {fileID: 2075686856, guid: bbed3e43d899873409f7670351a61bb6, type: 3}
  - m_RefCount: 1
    m_Data: {fileID: 1486986176, guid: bbed3e43d899873409f7670351a61bb6, type: 3}
  - m_RefCount: 1
    m_Data: {fileID: -787836436, guid: bbed3e43d899873409f7670351a61bb6, type: 3}
  - m_RefCount: 1
    m_Data: {fileID: 310112144, guid: bbed3e43d899873409f7670351a61bb6, type: 3}
  - m_RefCount: 1
    m_Data: {fileID: -278390873, guid: bbed3e43d899873409f7670351a61bb6, type: 3}
  - m_RefCount: 1
    m_Data: {fileID: -1352466732, guid: bbed3e43d899873409f7670351a61bb6, type: 3}
  m_TileMatrixArray:
  - m_RefCount: 149
    m_Data:
      e00: 1
      e01: 0
      e02: 0
      e03: 0
      e10: 0
      e11: 1
      e12: 0
      e13: 0
      e20: 0
      e21: 0
      e22: 1
      e23: 0
      e30: 0
      e31: 0
      e32: 0
      e33: 1
  - m_RefCount: 2
    m_Data:
      e00: -1
      e01: 0
      e02: 0
      e03: 0
      e10: 0
      e11: 1
      e12: 0
      e13: 0
      e20: 0
      e21: 0
      e22: 1
      e23: 0
      e30: 0
      e31: 0
      e32: 0
      e33: 1
  m_TileColorArray:
  - m_RefCount: 151
    m_Data: {r: 1, g: 1, b: 1, a: 1}
  m_TileObjectToInstantiateArray: []
  m_AnimationFrameRate: 1
  m_Color: {r: 1, g: 1, b: 1, a: 1}
  m_Origin: {x: -3, y: -6, z: 0}
  m_Size: {x: 19, y: 8, z: 1}
  m_TileAnchor: {x: 0.5, y: 0.5, z: 0}
  m_TileOrientation: 0
  m_TileOrientationMatrix:
    e00: 1
    e01: 0
    e02: 0
    e03: 0
    e10: 0
    e11: 1
    e12: 0
    e13: 0
    e20: 0
    e21: 0
    e22: 1
    e23: 0
    e30: 0
    e31: 0
    e32: 0
    e33: 1
--- !u!483693784 &428673460137522088
TilemapRenderer:
  m_ObjectHideFlags: 0
  m_CorrespondingSourceObject: {fileID: 0}
  m_PrefabInstance: {fileID: 0}
  m_PrefabAsset: {fileID: 0}
  m_GameObject: {fileID: 3307954046484728686}
  m_Enabled: 1
  m_CastShadows: 0
  m_ReceiveShadows: 0
  m_DynamicOccludee: 0
  m_StaticShadowCaster: 0
  m_MotionVectors: 1
  m_LightProbeUsage: 0
  m_ReflectionProbeUsage: 0
  m_RayTracingMode: 0
  m_RayTraceProcedural: 0
  m_RenderingLayerMask: 1
  m_RendererPriority: 0
  m_Materials:
  - {fileID: 10754, guid: 0000000000000000f000000000000000, type: 0}
  m_StaticBatchInfo:
    firstSubMesh: 0
    subMeshCount: 0
  m_StaticBatchRoot: {fileID: 0}
  m_ProbeAnchor: {fileID: 0}
  m_LightProbeVolumeOverride: {fileID: 0}
  m_ScaleInLightmap: 1
  m_ReceiveGI: 1
  m_PreserveUVs: 0
  m_IgnoreNormalsForChartDetection: 0
  m_ImportantGI: 0
  m_StitchLightmapSeams: 1
  m_SelectedEditorRenderState: 0
  m_MinimumChartSize: 4
  m_AutoUVMaxDistance: 0.5
  m_AutoUVMaxAngle: 89
  m_LightmapParameters: {fileID: 0}
  m_SortingLayerID: 0
  m_SortingLayer: 0
  m_SortingOrder: 0
  m_ChunkSize: {x: 32, y: 32, z: 32}
  m_ChunkCullingBounds: {x: 0, y: 0, z: 0}
  m_MaxChunkCount: 16
  m_MaxFrameAge: 16
  m_SortOrder: 0
  m_Mode: 0
  m_DetectChunkCullingBounds: 0
  m_MaskInteraction: 0
--- !u!114 &3742209943899487314
MonoBehaviour:
  m_ObjectHideFlags: 0
  m_CorrespondingSourceObject: {fileID: 0}
  m_PrefabInstance: {fileID: 0}
  m_PrefabAsset: {fileID: 0}
  m_GameObject: {fileID: 0}
  m_Enabled: 1
  m_EditorHideFlags: 0
  m_Script: {fileID: 12395, guid: 0000000000000000e000000000000000, type: 0}
  m_Name: Palette Settings
  m_EditorClassIdentifier: 
  cellSizing: 0
  m_TransparencySortMode: 0
  m_TransparencySortAxis: {x: 0, y: 0, z: 1}
